ISO-10303-21;
HEADER;
/* Generated by software containing ST-Developer
 * from STEP Tools, Inc. (www.steptools.com) 
 */

FILE_DESCRIPTION(
/* description */ (''),
/* implementation_level */ '2;1');

FILE_NAME(
/* name */ '05_Shaft_60x1300mm.stp',
/* time_stamp */ '2024-02-05T14:19:33+01:00',
/* author */ ('ge49laz'),
/* organization */ (''),
/* preprocessor_version */ 'ST-DEVELOPER v19.2',
/* originating_system */ 'Autodesk Inventor 2024',
/* authorisation */ '');

FILE_SCHEMA (('AUTOMOTIVE_DESIGN { 1 0 10303 214 3 1 1 }'));
ENDSEC;

DATA;
#10=MECHANICAL_DESIGN_GEOMETRIC_PRESENTATION_REPRESENTATION('',(#13),#671);
#11=SHAPE_REPRESENTATION_RELATIONSHIP('SRR','None',#678,#12);
#12=ADVANCED_BREP_SHAPE_REPRESENTATION('',(#14),#670);
#13=STYLED_ITEM('',(#687),#14);
#14=MANIFOLD_SOLID_BREP('Volumenk\X\F6rper1',#394);
#15=FACE_BOUND('',#54,.T.);
#16=FACE_BOUND('',#55,.T.);
#17=FACE_BOUND('',#56,.T.);
#18=FACE_BOUND('',#57,.T.);
#19=CIRCLE('',#434,30.);
#20=CIRCLE('',#435,30.);
#21=CYLINDRICAL_SURFACE('',#433,30.);
#22=FACE_OUTER_BOUND('',#45,.T.);
#23=FACE_OUTER_BOUND('',#46,.T.);
#24=FACE_OUTER_BOUND('',#47,.T.);
#25=FACE_OUTER_BOUND('',#48,.T.);
#26=FACE_OUTER_BOUND('',#49,.T.);
#27=FACE_OUTER_BOUND('',#50,.T.);
#28=FACE_OUTER_BOUND('',#51,.T.);
#29=FACE_OUTER_BOUND('',#52,.T.);
#30=FACE_OUTER_BOUND('',#53,.T.);
#31=FACE_OUTER_BOUND('',#58,.T.);
#32=FACE_OUTER_BOUND('',#59,.T.);
#33=FACE_OUTER_BOUND('',#60,.T.);
#34=FACE_OUTER_BOUND('',#61,.T.);
#35=FACE_OUTER_BOUND('',#62,.T.);
#36=FACE_OUTER_BOUND('',#63,.T.);
#37=FACE_OUTER_BOUND('',#64,.T.);
#38=FACE_OUTER_BOUND('',#65,.T.);
#39=FACE_OUTER_BOUND('',#66,.T.);
#40=FACE_OUTER_BOUND('',#67,.T.);
#41=FACE_OUTER_BOUND('',#68,.T.);
#42=FACE_OUTER_BOUND('',#69,.T.);
#43=FACE_OUTER_BOUND('',#70,.T.);
#44=FACE_OUTER_BOUND('',#71,.T.);
#45=EDGE_LOOP('',(#247,#248,#249,#250));
#46=EDGE_LOOP('',(#251,#252,#253,#254));
#47=EDGE_LOOP('',(#255,#256,#257,#258));
#48=EDGE_LOOP('',(#259,#260,#261,#262));
#49=EDGE_LOOP('',(#263,#264,#265,#266));
#50=EDGE_LOOP('',(#267,#268,#269,#270));
#51=EDGE_LOOP('',(#271,#272,#273,#274));
#52=EDGE_LOOP('',(#275,#276,#277,#278));
#53=EDGE_LOOP('',(#279,#280,#281,#282));
#54=EDGE_LOOP('',(#283,#284,#285,#286));
#55=EDGE_LOOP('',(#287,#288,#289,#290));
#56=EDGE_LOOP('',(#291,#292,#293,#294));
#57=EDGE_LOOP('',(#295,#296,#297,#298));
#58=EDGE_LOOP('',(#299,#300,#301,#302));
#59=EDGE_LOOP('',(#303,#304,#305,#306));
#60=EDGE_LOOP('',(#307,#308,#309,#310));
#61=EDGE_LOOP('',(#311,#312,#313,#314));
#62=EDGE_LOOP('',(#315,#316,#317,#318));
#63=EDGE_LOOP('',(#319,#320,#321,#322));
#64=EDGE_LOOP('',(#323,#324,#325,#326));
#65=EDGE_LOOP('',(#327,#328,#329,#330));
#66=EDGE_LOOP('',(#331,#332,#333,#334));
#67=EDGE_LOOP('',(#335,#336,#337,#338));
#68=EDGE_LOOP('',(#339,#340,#341,#342));
#69=EDGE_LOOP('',(#343,#344,#345,#346));
#70=EDGE_LOOP('',(#347));
#71=EDGE_LOOP('',(#348));
#72=LINE('',#565,#113);
#73=LINE('',#567,#114);
#74=LINE('',#568,#115);
#75=LINE('',#574,#116);
#76=LINE('',#576,#117);
#77=LINE('',#577,#118);
#78=LINE('',#583,#119);
#79=LINE('',#585,#120);
#80=LINE('',#586,#121);
#81=LINE('',#592,#122);
#82=LINE('',#594,#123);
#83=LINE('',#595,#124);
#84=LINE('',#601,#125);
#85=LINE('',#603,#126);
#86=LINE('',#604,#127);
#87=LINE('',#610,#128);
#88=LINE('',#612,#129);
#89=LINE('',#613,#130);
#90=LINE('',#619,#131);
#91=LINE('',#621,#132);
#92=LINE('',#622,#133);
#93=LINE('',#628,#134);
#94=LINE('',#630,#135);
#95=LINE('',#631,#136);
#96=LINE('',#636,#137);
#97=LINE('',#638,#138);
#98=LINE('',#639,#139);
#99=LINE('',#640,#140);
#100=LINE('',#641,#141);
#101=LINE('',#642,#142);
#102=LINE('',#643,#143);
#103=LINE('',#644,#144);
#104=LINE('',#645,#145);
#105=LINE('',#647,#146);
#106=LINE('',#649,#147);
#107=LINE('',#652,#148);
#108=LINE('',#654,#149);
#109=LINE('',#657,#150);
#110=LINE('',#659,#151);
#111=LINE('',#662,#152);
#112=LINE('',#664,#153);
#113=VECTOR('',#456,10.);
#114=VECTOR('',#457,10.);
#115=VECTOR('',#458,10.);
#116=VECTOR('',#463,10.);
#117=VECTOR('',#464,10.);
#118=VECTOR('',#465,10.);
#119=VECTOR('',#470,10.);
#120=VECTOR('',#471,10.);
#121=VECTOR('',#472,10.);
#122=VECTOR('',#477,10.);
#123=VECTOR('',#478,10.);
#124=VECTOR('',#479,10.);
#125=VECTOR('',#484,10.);
#126=VECTOR('',#485,10.);
#127=VECTOR('',#486,10.);
#128=VECTOR('',#491,10.);
#129=VECTOR('',#492,10.);
#130=VECTOR('',#493,10.);
#131=VECTOR('',#498,10.);
#132=VECTOR('',#499,10.);
#133=VECTOR('',#500,10.);
#134=VECTOR('',#505,10.);
#135=VECTOR('',#506,10.);
#136=VECTOR('',#507,10.);
#137=VECTOR('',#512,30.);
#138=VECTOR('',#515,10.);
#139=VECTOR('',#516,10.);
#140=VECTOR('',#517,10.);
#141=VECTOR('',#518,10.);
#142=VECTOR('',#519,10.);
#143=VECTOR('',#520,10.);
#144=VECTOR('',#521,10.);
#145=VECTOR('',#522,10.);
#146=VECTOR('',#525,10.);
#147=VECTOR('',#528,10.);
#148=VECTOR('',#533,10.);
#149=VECTOR('',#536,10.);
#150=VECTOR('',#541,10.);
#151=VECTOR('',#544,10.);
#152=VECTOR('',#549,10.);
#153=VECTOR('',#552,10.);
#154=ELLIPSE('',#418,59.9999999999998,30.);
#155=ELLIPSE('',#420,60.,30.);
#156=ELLIPSE('',#422,60.0000000000002,30.);
#157=ELLIPSE('',#424,60.0000000000007,30.);
#158=ELLIPSE('',#426,59.9999999999997,30.);
#159=ELLIPSE('',#428,59.9999999999999,30.);
#160=ELLIPSE('',#430,60.0000000000002,30.);
#161=ELLIPSE('',#432,59.9999999999998,30.);
#162=VERTEX_POINT('',#561);
#163=VERTEX_POINT('',#562);
#164=VERTEX_POINT('',#564);
#165=VERTEX_POINT('',#566);
#166=VERTEX_POINT('',#570);
#167=VERTEX_POINT('',#571);
#168=VERTEX_POINT('',#573);
#169=VERTEX_POINT('',#575);
#170=VERTEX_POINT('',#579);
#171=VERTEX_POINT('',#580);
#172=VERTEX_POINT('',#582);
#173=VERTEX_POINT('',#584);
#174=VERTEX_POINT('',#588);
#175=VERTEX_POINT('',#589);
#176=VERTEX_POINT('',#591);
#177=VERTEX_POINT('',#593);
#178=VERTEX_POINT('',#597);
#179=VERTEX_POINT('',#598);
#180=VERTEX_POINT('',#600);
#181=VERTEX_POINT('',#602);
#182=VERTEX_POINT('',#606);
#183=VERTEX_POINT('',#607);
#184=VERTEX_POINT('',#609);
#185=VERTEX_POINT('',#611);
#186=VERTEX_POINT('',#615);
#187=VERTEX_POINT('',#616);
#188=VERTEX_POINT('',#618);
#189=VERTEX_POINT('',#620);
#190=VERTEX_POINT('',#624);
#191=VERTEX_POINT('',#625);
#192=VERTEX_POINT('',#627);
#193=VERTEX_POINT('',#629);
#194=VERTEX_POINT('',#633);
#195=VERTEX_POINT('',#635);
#196=EDGE_CURVE('',#162,#163,#154,.T.);
#197=EDGE_CURVE('',#162,#164,#72,.T.);
#198=EDGE_CURVE('',#164,#165,#73,.T.);
#199=EDGE_CURVE('',#165,#163,#74,.T.);
#200=EDGE_CURVE('',#166,#167,#155,.T.);
#201=EDGE_CURVE('',#166,#168,#75,.T.);
#202=EDGE_CURVE('',#169,#168,#76,.T.);
#203=EDGE_CURVE('',#169,#167,#77,.T.);
#204=EDGE_CURVE('',#170,#171,#156,.T.);
#205=EDGE_CURVE('',#170,#172,#78,.T.);
#206=EDGE_CURVE('',#173,#172,#79,.T.);
#207=EDGE_CURVE('',#173,#171,#80,.T.);
#208=EDGE_CURVE('',#174,#175,#157,.T.);
#209=EDGE_CURVE('',#174,#176,#81,.T.);
#210=EDGE_CURVE('',#176,#177,#82,.T.);
#211=EDGE_CURVE('',#177,#175,#83,.T.);
#212=EDGE_CURVE('',#178,#179,#158,.T.);
#213=EDGE_CURVE('',#178,#180,#84,.T.);
#214=EDGE_CURVE('',#180,#181,#85,.T.);
#215=EDGE_CURVE('',#181,#179,#86,.T.);
#216=EDGE_CURVE('',#182,#183,#159,.T.);
#217=EDGE_CURVE('',#182,#184,#87,.T.);
#218=EDGE_CURVE('',#185,#184,#88,.T.);
#219=EDGE_CURVE('',#185,#183,#89,.T.);
#220=EDGE_CURVE('',#186,#187,#160,.T.);
#221=EDGE_CURVE('',#186,#188,#90,.T.);
#222=EDGE_CURVE('',#189,#188,#91,.T.);
#223=EDGE_CURVE('',#189,#187,#92,.T.);
#224=EDGE_CURVE('',#190,#191,#161,.T.);
#225=EDGE_CURVE('',#190,#192,#93,.T.);
#226=EDGE_CURVE('',#192,#193,#94,.T.);
#227=EDGE_CURVE('',#193,#191,#95,.T.);
#228=EDGE_CURVE('',#194,#194,#19,.T.);
#229=EDGE_CURVE('',#194,#195,#96,.T.);
#230=EDGE_CURVE('',#195,#195,#20,.T.);
#231=EDGE_CURVE('',#179,#162,#97,.T.);
#232=EDGE_CURVE('',#163,#178,#98,.T.);
#233=EDGE_CURVE('',#183,#166,#99,.T.);
#234=EDGE_CURVE('',#167,#182,#100,.T.);
#235=EDGE_CURVE('',#171,#186,#101,.T.);
#236=EDGE_CURVE('',#187,#170,#102,.T.);
#237=EDGE_CURVE('',#175,#190,#103,.T.);
#238=EDGE_CURVE('',#191,#174,#104,.T.);
#239=EDGE_CURVE('',#184,#169,#105,.T.);
#240=EDGE_CURVE('',#185,#168,#106,.T.);
#241=EDGE_CURVE('',#173,#188,#107,.T.);
#242=EDGE_CURVE('',#172,#189,#108,.T.);
#243=EDGE_CURVE('',#165,#180,#109,.T.);
#244=EDGE_CURVE('',#164,#181,#110,.T.);
#245=EDGE_CURVE('',#193,#176,#111,.T.);
#246=EDGE_CURVE('',#192,#177,#112,.T.);
#247=ORIENTED_EDGE('',*,*,#196,.F.);
#248=ORIENTED_EDGE('',*,*,#197,.T.);
#249=ORIENTED_EDGE('',*,*,#198,.T.);
#250=ORIENTED_EDGE('',*,*,#199,.T.);
#251=ORIENTED_EDGE('',*,*,#200,.F.);
#252=ORIENTED_EDGE('',*,*,#201,.T.);
#253=ORIENTED_EDGE('',*,*,#202,.F.);
#254=ORIENTED_EDGE('',*,*,#203,.T.);
#255=ORIENTED_EDGE('',*,*,#204,.F.);
#256=ORIENTED_EDGE('',*,*,#205,.T.);
#257=ORIENTED_EDGE('',*,*,#206,.F.);
#258=ORIENTED_EDGE('',*,*,#207,.T.);
#259=ORIENTED_EDGE('',*,*,#208,.F.);
#260=ORIENTED_EDGE('',*,*,#209,.T.);
#261=ORIENTED_EDGE('',*,*,#210,.T.);
#262=ORIENTED_EDGE('',*,*,#211,.T.);
#263=ORIENTED_EDGE('',*,*,#212,.F.);
#264=ORIENTED_EDGE('',*,*,#213,.T.);
#265=ORIENTED_EDGE('',*,*,#214,.T.);
#266=ORIENTED_EDGE('',*,*,#215,.T.);
#267=ORIENTED_EDGE('',*,*,#216,.F.);
#268=ORIENTED_EDGE('',*,*,#217,.T.);
#269=ORIENTED_EDGE('',*,*,#218,.F.);
#270=ORIENTED_EDGE('',*,*,#219,.T.);
#271=ORIENTED_EDGE('',*,*,#220,.F.);
#272=ORIENTED_EDGE('',*,*,#221,.T.);
#273=ORIENTED_EDGE('',*,*,#222,.F.);
#274=ORIENTED_EDGE('',*,*,#223,.T.);
#275=ORIENTED_EDGE('',*,*,#224,.F.);
#276=ORIENTED_EDGE('',*,*,#225,.T.);
#277=ORIENTED_EDGE('',*,*,#226,.T.);
#278=ORIENTED_EDGE('',*,*,#227,.T.);
#279=ORIENTED_EDGE('',*,*,#228,.F.);
#280=ORIENTED_EDGE('',*,*,#229,.T.);
#281=ORIENTED_EDGE('',*,*,#230,.T.);
#282=ORIENTED_EDGE('',*,*,#229,.F.);
#283=ORIENTED_EDGE('',*,*,#231,.T.);
#284=ORIENTED_EDGE('',*,*,#196,.T.);
#285=ORIENTED_EDGE('',*,*,#232,.T.);
#286=ORIENTED_EDGE('',*,*,#212,.T.);
#287=ORIENTED_EDGE('',*,*,#233,.T.);
#288=ORIENTED_EDGE('',*,*,#200,.T.);
#289=ORIENTED_EDGE('',*,*,#234,.T.);
#290=ORIENTED_EDGE('',*,*,#216,.T.);
#291=ORIENTED_EDGE('',*,*,#235,.T.);
#292=ORIENTED_EDGE('',*,*,#220,.T.);
#293=ORIENTED_EDGE('',*,*,#236,.T.);
#294=ORIENTED_EDGE('',*,*,#204,.T.);
#295=ORIENTED_EDGE('',*,*,#237,.T.);
#296=ORIENTED_EDGE('',*,*,#224,.T.);
#297=ORIENTED_EDGE('',*,*,#238,.T.);
#298=ORIENTED_EDGE('',*,*,#208,.T.);
#299=ORIENTED_EDGE('',*,*,#239,.F.);
#300=ORIENTED_EDGE('',*,*,#217,.F.);
#301=ORIENTED_EDGE('',*,*,#234,.F.);
#302=ORIENTED_EDGE('',*,*,#203,.F.);
#303=ORIENTED_EDGE('',*,*,#233,.F.);
#304=ORIENTED_EDGE('',*,*,#219,.F.);
#305=ORIENTED_EDGE('',*,*,#240,.T.);
#306=ORIENTED_EDGE('',*,*,#201,.F.);
#307=ORIENTED_EDGE('',*,*,#202,.T.);
#308=ORIENTED_EDGE('',*,*,#240,.F.);
#309=ORIENTED_EDGE('',*,*,#218,.T.);
#310=ORIENTED_EDGE('',*,*,#239,.T.);
#311=ORIENTED_EDGE('',*,*,#235,.F.);
#312=ORIENTED_EDGE('',*,*,#207,.F.);
#313=ORIENTED_EDGE('',*,*,#241,.T.);
#314=ORIENTED_EDGE('',*,*,#221,.F.);
#315=ORIENTED_EDGE('',*,*,#222,.T.);
#316=ORIENTED_EDGE('',*,*,#241,.F.);
#317=ORIENTED_EDGE('',*,*,#206,.T.);
#318=ORIENTED_EDGE('',*,*,#242,.T.);
#319=ORIENTED_EDGE('',*,*,#242,.F.);
#320=ORIENTED_EDGE('',*,*,#205,.F.);
#321=ORIENTED_EDGE('',*,*,#236,.F.);
#322=ORIENTED_EDGE('',*,*,#223,.F.);
#323=ORIENTED_EDGE('',*,*,#232,.F.);
#324=ORIENTED_EDGE('',*,*,#199,.F.);
#325=ORIENTED_EDGE('',*,*,#243,.T.);
#326=ORIENTED_EDGE('',*,*,#213,.F.);
#327=ORIENTED_EDGE('',*,*,#214,.F.);
#328=ORIENTED_EDGE('',*,*,#243,.F.);
#329=ORIENTED_EDGE('',*,*,#198,.F.);
#330=ORIENTED_EDGE('',*,*,#244,.T.);
#331=ORIENTED_EDGE('',*,*,#244,.F.);
#332=ORIENTED_EDGE('',*,*,#197,.F.);
#333=ORIENTED_EDGE('',*,*,#231,.F.);
#334=ORIENTED_EDGE('',*,*,#215,.F.);
#335=ORIENTED_EDGE('',*,*,#238,.F.);
#336=ORIENTED_EDGE('',*,*,#227,.F.);
#337=ORIENTED_EDGE('',*,*,#245,.T.);
#338=ORIENTED_EDGE('',*,*,#209,.F.);
#339=ORIENTED_EDGE('',*,*,#210,.F.);
#340=ORIENTED_EDGE('',*,*,#245,.F.);
#341=ORIENTED_EDGE('',*,*,#226,.F.);
#342=ORIENTED_EDGE('',*,*,#246,.T.);
#343=ORIENTED_EDGE('',*,*,#246,.F.);
#344=ORIENTED_EDGE('',*,*,#225,.F.);
#345=ORIENTED_EDGE('',*,*,#237,.F.);
#346=ORIENTED_EDGE('',*,*,#211,.F.);
#347=ORIENTED_EDGE('',*,*,#228,.T.);
#348=ORIENTED_EDGE('',*,*,#230,.F.);
#349=PLANE('',#417);
#350=PLANE('',#419);
#351=PLANE('',#421);
#352=PLANE('',#423);
#353=PLANE('',#425);
#354=PLANE('',#427);
#355=PLANE('',#429);
#356=PLANE('',#431);
#357=PLANE('',#436);
#358=PLANE('',#437);
#359=PLANE('',#438);
#360=PLANE('',#439);
#361=PLANE('',#440);
#362=PLANE('',#441);
#363=PLANE('',#442);
#364=PLANE('',#443);
#365=PLANE('',#444);
#366=PLANE('',#445);
#367=PLANE('',#446);
#368=PLANE('',#447);
#369=PLANE('',#448);
#370=PLANE('',#449);
#371=ADVANCED_FACE('',(#22),#349,.F.);
#372=ADVANCED_FACE('',(#23),#350,.F.);
#373=ADVANCED_FACE('',(#24),#351,.F.);
#374=ADVANCED_FACE('',(#25),#352,.F.);
#375=ADVANCED_FACE('',(#26),#353,.F.);
#376=ADVANCED_FACE('',(#27),#354,.F.);
#377=ADVANCED_FACE('',(#28),#355,.F.);
#378=ADVANCED_FACE('',(#29),#356,.F.);
#379=ADVANCED_FACE('',(#30,#15,#16,#17,#18),#21,.T.);
#380=ADVANCED_FACE('',(#31),#357,.F.);
#381=ADVANCED_FACE('',(#32),#358,.F.);
#382=ADVANCED_FACE('',(#33),#359,.F.);
#383=ADVANCED_FACE('',(#34),#360,.F.);
#384=ADVANCED_FACE('',(#35),#361,.F.);
#385=ADVANCED_FACE('',(#36),#362,.F.);
#386=ADVANCED_FACE('',(#37),#363,.F.);
#387=ADVANCED_FACE('',(#38),#364,.F.);
#388=ADVANCED_FACE('',(#39),#365,.F.);
#389=ADVANCED_FACE('',(#40),#366,.F.);
#390=ADVANCED_FACE('',(#41),#367,.F.);
#391=ADVANCED_FACE('',(#42),#368,.F.);
#392=ADVANCED_FACE('',(#43),#369,.T.);
#393=ADVANCED_FACE('',(#44),#370,.F.);
#394=CLOSED_SHELL('',(#371,#372,#373,#374,#375,#376,#377,#378,#379,#380,
#381,#382,#383,#384,#385,#386,#387,#388,#389,#390,#391,#392,#393));
#395=DERIVED_UNIT_ELEMENT(#398,1.);
#396=DERIVED_UNIT_ELEMENT(#673,-3.);
#397=DIMENSIONAL_EXPONENTS(0.,1.,0.,0.,0.,0.,0.);
#398=(
CONVERSION_BASED_UNIT('gram',#400)
MASS_UNIT()
NAMED_UNIT(#397)
);
#399=(
MASS_UNIT()
NAMED_UNIT(*)
SI_UNIT(.KILO.,.GRAM.)
);
#400=MASS_MEASURE_WITH_UNIT(MASS_MEASURE(0.001),#399);
#401=DERIVED_UNIT((#395,#396));
#402=MEASURE_REPRESENTATION_ITEM('density measure',
POSITIVE_RATIO_MEASURE(1.),#401);
#403=PROPERTY_DEFINITION_REPRESENTATION(#408,#405);
#404=PROPERTY_DEFINITION_REPRESENTATION(#409,#406);
#405=REPRESENTATION('material name',(#407),#670);
#406=REPRESENTATION('density',(#402),#670);
#407=DESCRIPTIVE_REPRESENTATION_ITEM('Generisch','Generisch');
#408=PROPERTY_DEFINITION('material property','material name',#680);
#409=PROPERTY_DEFINITION('material property','density of part',#680);
#410=DATE_TIME_ROLE('creation_date');
#411=APPLIED_DATE_AND_TIME_ASSIGNMENT(#412,#410,(#680));
#412=DATE_AND_TIME(#413,#414);
#413=CALENDAR_DATE(2023,14,11);
#414=LOCAL_TIME(0,0,0.,#415);
#415=COORDINATED_UNIVERSAL_TIME_OFFSET(0,0,.BEHIND.);
#416=AXIS2_PLACEMENT_3D('',#559,#450,#451);
#417=AXIS2_PLACEMENT_3D('',#560,#452,#453);
#418=AXIS2_PLACEMENT_3D('',#563,#454,#455);
#419=AXIS2_PLACEMENT_3D('',#569,#459,#460);
#420=AXIS2_PLACEMENT_3D('',#572,#461,#462);
#421=AXIS2_PLACEMENT_3D('',#578,#466,#467);
#422=AXIS2_PLACEMENT_3D('',#581,#468,#469);
#423=AXIS2_PLACEMENT_3D('',#587,#473,#474);
#424=AXIS2_PLACEMENT_3D('',#590,#475,#476);
#425=AXIS2_PLACEMENT_3D('',#596,#480,#481);
#426=AXIS2_PLACEMENT_3D('',#599,#482,#483);
#427=AXIS2_PLACEMENT_3D('',#605,#487,#488);
#428=AXIS2_PLACEMENT_3D('',#608,#489,#490);
#429=AXIS2_PLACEMENT_3D('',#614,#494,#495);
#430=AXIS2_PLACEMENT_3D('',#617,#496,#497);
#431=AXIS2_PLACEMENT_3D('',#623,#501,#502);
#432=AXIS2_PLACEMENT_3D('',#626,#503,#504);
#433=AXIS2_PLACEMENT_3D('',#632,#508,#509);
#434=AXIS2_PLACEMENT_3D('',#634,#510,#511);
#435=AXIS2_PLACEMENT_3D('',#637,#513,#514);
#436=AXIS2_PLACEMENT_3D('',#646,#523,#524);
#437=AXIS2_PLACEMENT_3D('',#648,#526,#527);
#438=AXIS2_PLACEMENT_3D('',#650,#529,#530);
#439=AXIS2_PLACEMENT_3D('',#651,#531,#532);
#440=AXIS2_PLACEMENT_3D('',#653,#534,#535);
#441=AXIS2_PLACEMENT_3D('',#655,#537,#538);
#442=AXIS2_PLACEMENT_3D('',#656,#539,#540);
#443=AXIS2_PLACEMENT_3D('',#658,#542,#543);
#444=AXIS2_PLACEMENT_3D('',#660,#545,#546);
#445=AXIS2_PLACEMENT_3D('',#661,#547,#548);
#446=AXIS2_PLACEMENT_3D('',#663,#550,#551);
#447=AXIS2_PLACEMENT_3D('',#665,#553,#554);
#448=AXIS2_PLACEMENT_3D('',#666,#555,#556);
#449=AXIS2_PLACEMENT_3D('',#667,#557,#558);
#450=DIRECTION('axis',(0.,0.,1.));
#451=DIRECTION('refdir',(1.,0.,0.));
#452=DIRECTION('center_axis',(-0.866025403784438,0.,0.500000000000002));
#453=DIRECTION('ref_axis',(0.500000000000002,0.,0.866025403784437));
#454=DIRECTION('center_axis',(-0.866025403784438,0.,0.500000000000002));
#455=DIRECTION('ref_axis',(0.500000000000002,0.,0.866025403784438));
#456=DIRECTION('',(-0.500000000000002,0.,-0.866025403784437));
#457=DIRECTION('',(0.,1.,0.));
#458=DIRECTION('',(0.500000000000002,0.,0.866025403784437));
#459=DIRECTION('center_axis',(-0.866025403784439,0.,0.5));
#460=DIRECTION('ref_axis',(0.5,0.,0.866025403784439));
#461=DIRECTION('center_axis',(-0.866025403784439,0.,0.5));
#462=DIRECTION('ref_axis',(0.5,0.,0.866025403784439));
#463=DIRECTION('',(-0.5,0.,-0.866025403784439));
#464=DIRECTION('',(0.,-1.,0.));
#465=DIRECTION('',(0.5,0.,0.866025403784439));
#466=DIRECTION('center_axis',(-0.86602540378444,0.,-0.499999999999998));
#467=DIRECTION('ref_axis',(-0.499999999999998,0.,0.86602540378444));
#468=DIRECTION('center_axis',(-0.86602540378444,0.,-0.499999999999998));
#469=DIRECTION('ref_axis',(0.499999999999998,0.,-0.86602540378444));
#470=DIRECTION('',(-0.499999999999998,0.,0.86602540378444));
#471=DIRECTION('',(0.,1.,0.));
#472=DIRECTION('',(0.499999999999998,0.,-0.86602540378444));
#473=DIRECTION('center_axis',(-0.866025403784442,0.,-0.499999999999994));
#474=DIRECTION('ref_axis',(-0.499999999999994,0.,0.866025403784442));
#475=DIRECTION('center_axis',(-0.866025403784442,0.,-0.499999999999994));
#476=DIRECTION('ref_axis',(0.499999999999994,0.,-0.866025403784442));
#477=DIRECTION('',(-0.499999999999994,0.,0.866025403784442));
#478=DIRECTION('',(0.,-1.,0.));
#479=DIRECTION('',(0.499999999999994,0.,-0.866025403784442));
#480=DIRECTION('center_axis',(-0.866025403784437,0.,-0.500000000000002));
#481=DIRECTION('ref_axis',(-0.500000000000002,0.,0.866025403784437));
#482=DIRECTION('center_axis',(-0.866025403784437,0.,-0.500000000000002));
#483=DIRECTION('ref_axis',(0.500000000000002,0.,-0.866025403784437));
#484=DIRECTION('',(-0.500000000000002,0.,0.866025403784437));
#485=DIRECTION('',(0.,-1.,0.));
#486=DIRECTION('',(0.500000000000002,0.,-0.866025403784437));
#487=DIRECTION('center_axis',(-0.866025403784438,0.,-0.500000000000001));
#488=DIRECTION('ref_axis',(-0.500000000000001,0.,0.866025403784438));
#489=DIRECTION('center_axis',(-0.866025403784438,0.,-0.500000000000001));
#490=DIRECTION('ref_axis',(0.500000000000001,0.,-0.866025403784438));
#491=DIRECTION('',(-0.500000000000001,0.,0.866025403784438));
#492=DIRECTION('',(0.,1.,0.));
#493=DIRECTION('',(0.500000000000001,0.,-0.866025403784438));
#494=DIRECTION('center_axis',(-0.86602540378444,0.,0.499999999999998));
#495=DIRECTION('ref_axis',(0.499999999999998,0.,0.86602540378444));
#496=DIRECTION('center_axis',(-0.86602540378444,0.,0.499999999999998));
#497=DIRECTION('ref_axis',(0.499999999999998,0.,0.86602540378444));
#498=DIRECTION('',(-0.499999999999998,0.,-0.86602540378444));
#499=DIRECTION('',(0.,-1.,0.));
#500=DIRECTION('',(0.499999999999998,0.,0.86602540378444));
#501=DIRECTION('center_axis',(-0.866025403784438,0.,0.500000000000002));
#502=DIRECTION('ref_axis',(0.500000000000002,0.,0.866025403784437));
#503=DIRECTION('center_axis',(-0.866025403784438,0.,0.500000000000002));
#504=DIRECTION('ref_axis',(0.500000000000002,0.,0.866025403784438));
#505=DIRECTION('',(-0.500000000000002,0.,-0.866025403784437));
#506=DIRECTION('',(0.,1.,0.));
#507=DIRECTION('',(0.500000000000002,0.,0.866025403784437));
#508=DIRECTION('center_axis',(0.,0.,1.));
#509=DIRECTION('ref_axis',(1.,0.,0.));
#510=DIRECTION('center_axis',(0.,0.,1.));
#511=DIRECTION('ref_axis',(1.,0.,0.));
#512=DIRECTION('',(0.,0.,-1.));
#513=DIRECTION('center_axis',(0.,0.,1.));
#514=DIRECTION('ref_axis',(1.,0.,0.));
#515=DIRECTION('',(0.,0.,1.));
#516=DIRECTION('',(0.,0.,-1.));
#517=DIRECTION('',(0.,0.,1.));
#518=DIRECTION('',(0.,0.,-1.));
#519=DIRECTION('',(0.,0.,1.));
#520=DIRECTION('',(0.,0.,-1.));
#521=DIRECTION('',(0.,0.,1.));
#522=DIRECTION('',(0.,0.,-1.));
#523=DIRECTION('center_axis',(-3.27125306236737E-16,1.,0.));
#524=DIRECTION('ref_axis',(-1.,-3.27125306236737E-16,0.));
#525=DIRECTION('',(0.,0.,1.));
#526=DIRECTION('center_axis',(-3.27125306236737E-16,-1.,0.));
#527=DIRECTION('ref_axis',(1.,-3.27125306236737E-16,0.));
#528=DIRECTION('',(0.,0.,1.));
#529=DIRECTION('center_axis',(-1.,0.,0.));
#530=DIRECTION('ref_axis',(0.,-1.,0.));
#531=DIRECTION('center_axis',(-3.27125306236737E-16,-1.,0.));
#532=DIRECTION('ref_axis',(1.,-3.27125306236737E-16,0.));
#533=DIRECTION('',(0.,0.,1.));
#534=DIRECTION('center_axis',(-1.,0.,0.));
#535=DIRECTION('ref_axis',(0.,-1.,0.));
#536=DIRECTION('',(0.,0.,1.));
#537=DIRECTION('center_axis',(-3.27125306236737E-16,1.,0.));
#538=DIRECTION('ref_axis',(-1.,-3.27125306236737E-16,0.));
#539=DIRECTION('center_axis',(-3.27125306236737E-16,1.,0.));
#540=DIRECTION('ref_axis',(1.,3.27125306236737E-16,0.));
#541=DIRECTION('',(0.,0.,-1.));
#542=DIRECTION('center_axis',(-1.,0.,0.));
#543=DIRECTION('ref_axis',(0.,1.,0.));
#544=DIRECTION('',(0.,0.,-1.));
#545=DIRECTION('center_axis',(-3.27125306236737E-16,-1.,0.));
#546=DIRECTION('ref_axis',(-1.,3.27125306236737E-16,0.));
#547=DIRECTION('center_axis',(-3.27125306236737E-16,1.,0.));
#548=DIRECTION('ref_axis',(1.,3.27125306236737E-16,0.));
#549=DIRECTION('',(0.,0.,-1.));
#550=DIRECTION('center_axis',(-1.,0.,0.));
#551=DIRECTION('ref_axis',(0.,1.,0.));
#552=DIRECTION('',(0.,0.,-1.));
#553=DIRECTION('center_axis',(-3.27125306236737E-16,-1.,0.));
#554=DIRECTION('ref_axis',(-1.,3.27125306236737E-16,0.));
#555=DIRECTION('center_axis',(0.,0.,1.));
#556=DIRECTION('ref_axis',(1.,0.,0.));
#557=DIRECTION('center_axis',(0.,0.,1.));
#558=DIRECTION('ref_axis',(1.,0.,0.));
#559=CARTESIAN_POINT('',(0.,0.,0.));
#560=CARTESIAN_POINT('Origin',(26.,0.,939.));
#561=CARTESIAN_POINT('',(29.3938769133981,-6.,944.878367248641));
#562=CARTESIAN_POINT('',(29.3938769133981,6.,944.878367248641));
#563=CARTESIAN_POINT('Origin',(0.,0.,893.966679003209));
#564=CARTESIAN_POINT('',(26.,-6.,939.));
#565=CARTESIAN_POINT('',(26.,-6.,939.));
#566=CARTESIAN_POINT('',(26.,6.,939.));
#567=CARTESIAN_POINT('',(26.,-6.,939.));
#568=CARTESIAN_POINT('',(26.,6.,939.));
#569=CARTESIAN_POINT('Origin',(26.,0.,237.));
#570=CARTESIAN_POINT('',(29.3938769133981,-6.,242.878367248641));
#571=CARTESIAN_POINT('',(29.3938769133981,6.,242.878367248641));
#572=CARTESIAN_POINT('Origin',(0.,0.,191.966679003209));
#573=CARTESIAN_POINT('',(26.,-6.,237.));
#574=CARTESIAN_POINT('',(26.,-6.,237.));
#575=CARTESIAN_POINT('',(26.,6.,237.));
#576=CARTESIAN_POINT('',(26.,3.,237.));
#577=CARTESIAN_POINT('',(26.,6.,237.));
#578=CARTESIAN_POINT('Origin',(30.,0.,394.071796769724));
#579=CARTESIAN_POINT('',(29.3938769133981,6.,395.121632751359));
#580=CARTESIAN_POINT('',(29.3938769133981,-6.,395.121632751359));
#581=CARTESIAN_POINT('Origin',(0.,0.,446.033320996791));
#582=CARTESIAN_POINT('',(26.,6.,401.));
#583=CARTESIAN_POINT('',(30.,6.,394.071796769724));
#584=CARTESIAN_POINT('',(26.,-6.,401.));
#585=CARTESIAN_POINT('',(26.,-6.,401.));
#586=CARTESIAN_POINT('',(30.,-6.,394.071796769724));
#587=CARTESIAN_POINT('Origin',(30.,0.,1096.07179676972));
#588=CARTESIAN_POINT('',(29.3938769133981,6.,1097.12163275136));
#589=CARTESIAN_POINT('',(29.3938769133981,-6.,1097.12163275136));
#590=CARTESIAN_POINT('Origin',(0.,0.,1148.03332099679));
#591=CARTESIAN_POINT('',(26.,6.,1103.));
#592=CARTESIAN_POINT('',(30.,6.,1096.07179676972));
#593=CARTESIAN_POINT('',(26.,-6.,1103.));
#594=CARTESIAN_POINT('',(26.,-3.,1103.));
#595=CARTESIAN_POINT('',(30.,-6.,1096.07179676972));
#596=CARTESIAN_POINT('Origin',(30.,0.,745.071796769725));
#597=CARTESIAN_POINT('',(29.3938769133981,6.,746.121632751359));
#598=CARTESIAN_POINT('',(29.3938769133981,-6.,746.121632751359));
#599=CARTESIAN_POINT('Origin',(0.,0.,797.033320996791));
#600=CARTESIAN_POINT('',(26.,6.,752.));
#601=CARTESIAN_POINT('',(30.,6.,745.071796769725));
#602=CARTESIAN_POINT('',(26.,-6.,752.));
#603=CARTESIAN_POINT('',(26.,-3.,752.));
#604=CARTESIAN_POINT('',(30.,-6.,745.071796769725));
#605=CARTESIAN_POINT('Origin',(30.,0.,159.571796769725));
#606=CARTESIAN_POINT('',(29.3938769133981,6.,160.621632751359));
#607=CARTESIAN_POINT('',(29.3938769133981,-6.,160.621632751359));
#608=CARTESIAN_POINT('Origin',(0.,0.,211.533320996791));
#609=CARTESIAN_POINT('',(26.,6.,166.5));
#610=CARTESIAN_POINT('',(30.,6.,159.571796769725));
#611=CARTESIAN_POINT('',(26.,-6.,166.5));
#612=CARTESIAN_POINT('',(26.,-6.,166.5));
#613=CARTESIAN_POINT('',(30.,-6.,159.571796769725));
#614=CARTESIAN_POINT('Origin',(26.,0.,588.));
#615=CARTESIAN_POINT('',(29.3938769133981,-6.,593.878367248641));
#616=CARTESIAN_POINT('',(29.3938769133981,6.,593.878367248641));
#617=CARTESIAN_POINT('Origin',(0.,0.,542.966679003209));
#618=CARTESIAN_POINT('',(26.,-6.,588.));
#619=CARTESIAN_POINT('',(26.,-6.,588.));
#620=CARTESIAN_POINT('',(26.,6.,588.));
#621=CARTESIAN_POINT('',(26.,3.,588.));
#622=CARTESIAN_POINT('',(26.,6.,588.));
#623=CARTESIAN_POINT('Origin',(26.,0.,1173.5));
#624=CARTESIAN_POINT('',(29.3938769133981,-6.,1179.37836724864));
#625=CARTESIAN_POINT('',(29.3938769133981,6.,1179.37836724864));
#626=CARTESIAN_POINT('Origin',(0.,0.,1128.46667900321));
#627=CARTESIAN_POINT('',(26.,-6.,1173.5));
#628=CARTESIAN_POINT('',(26.,-6.,1173.5));
#629=CARTESIAN_POINT('',(26.,6.,1173.5));
#630=CARTESIAN_POINT('',(26.,-6.,1173.5));
#631=CARTESIAN_POINT('',(26.,6.,1173.5));
#632=CARTESIAN_POINT('Origin',(0.,0.,0.));
#633=CARTESIAN_POINT('',(-30.,-3.67394039744206E-15,1300.));
#634=CARTESIAN_POINT('Origin',(0.,0.,1300.));
#635=CARTESIAN_POINT('',(-30.,-3.67394039744206E-15,0.));
#636=CARTESIAN_POINT('',(-30.,-3.67394039744206E-15,0.));
#637=CARTESIAN_POINT('Origin',(0.,0.,0.));
#638=CARTESIAN_POINT('',(29.3938769133981,-6.,0.));
#639=CARTESIAN_POINT('',(29.3938769133981,6.,0.));
#640=CARTESIAN_POINT('',(29.3938769133981,-6.,0.));
#641=CARTESIAN_POINT('',(29.3938769133981,6.,0.));
#642=CARTESIAN_POINT('',(29.3938769133981,-6.,0.));
#643=CARTESIAN_POINT('',(29.3938769133981,6.,0.));
#644=CARTESIAN_POINT('',(29.3938769133981,-6.,0.));
#645=CARTESIAN_POINT('',(29.3938769133981,6.,0.));
#646=CARTESIAN_POINT('Origin',(29.3938769133981,6.,166.5));
#647=CARTESIAN_POINT('',(26.,6.,166.5));
#648=CARTESIAN_POINT('Origin',(26.,-6.,166.5));
#649=CARTESIAN_POINT('',(26.,-6.,166.5));
#650=CARTESIAN_POINT('Origin',(26.,6.,166.5));
#651=CARTESIAN_POINT('Origin',(26.,-6.,401.));
#652=CARTESIAN_POINT('',(26.,-6.,401.));
#653=CARTESIAN_POINT('Origin',(26.,6.,401.));
#654=CARTESIAN_POINT('',(26.,6.,401.));
#655=CARTESIAN_POINT('Origin',(29.3938769133981,6.,401.));
#656=CARTESIAN_POINT('Origin',(26.,6.,939.));
#657=CARTESIAN_POINT('',(26.,6.,939.));
#658=CARTESIAN_POINT('Origin',(26.,-6.,939.));
#659=CARTESIAN_POINT('',(26.,-6.,939.));
#660=CARTESIAN_POINT('Origin',(29.3938769133981,-6.,939.));
#661=CARTESIAN_POINT('Origin',(26.,6.,1173.5));
#662=CARTESIAN_POINT('',(26.,6.,1173.5));
#663=CARTESIAN_POINT('Origin',(26.,-6.,1173.5));
#664=CARTESIAN_POINT('',(26.,-6.,1173.5));
#665=CARTESIAN_POINT('Origin',(29.3938769133981,-6.,1173.5));
#666=CARTESIAN_POINT('Origin',(0.,0.,1300.));
#667=CARTESIAN_POINT('Origin',(0.,0.,0.));
#668=UNCERTAINTY_MEASURE_WITH_UNIT(LENGTH_MEASURE(0.01),#672,
'DISTANCE_ACCURACY_VALUE',
'Maximum model space distance between geometric entities at asserted c
onnectivities');
#669=UNCERTAINTY_MEASURE_WITH_UNIT(LENGTH_MEASURE(0.01),#672,
'DISTANCE_ACCURACY_VALUE',
'Maximum model space distance between geometric entities at asserted c
onnectivities');
#670=(
GEOMETRIC_REPRESENTATION_CONTEXT(3)
GLOBAL_UNCERTAINTY_ASSIGNED_CONTEXT((#668))
GLOBAL_UNIT_ASSIGNED_CONTEXT((#672,#674,#675))
REPRESENTATION_CONTEXT('','3D')
);
#671=(
GEOMETRIC_REPRESENTATION_CONTEXT(3)
GLOBAL_UNCERTAINTY_ASSIGNED_CONTEXT((#669))
GLOBAL_UNIT_ASSIGNED_CONTEXT((#672,#674,#675))
REPRESENTATION_CONTEXT('','3D')
);
#672=(
LENGTH_UNIT()
NAMED_UNIT(*)
SI_UNIT(.MILLI.,.METRE.)
);
#673=(
LENGTH_UNIT()
NAMED_UNIT(*)
SI_UNIT(.CENTI.,.METRE.)
);
#674=(
NAMED_UNIT(*)
PLANE_ANGLE_UNIT()
SI_UNIT($,.RADIAN.)
);
#675=(
NAMED_UNIT(*)
SI_UNIT($,.STERADIAN.)
SOLID_ANGLE_UNIT()
);
#676=SHAPE_DEFINITION_REPRESENTATION(#677,#678);
#677=PRODUCT_DEFINITION_SHAPE('',$,#680);
#678=SHAPE_REPRESENTATION('',(#416),#670);
#679=PRODUCT_DEFINITION_CONTEXT('part definition',#684,'design');
#680=PRODUCT_DEFINITION('Shaft','05_Shaft_60x1300mm',#681,#679);
#681=PRODUCT_DEFINITION_FORMATION('',$,#686);
#682=PRODUCT_RELATED_PRODUCT_CATEGORY('05_Shaft_60x1300mm',
'05_Shaft_60x1300mm',(#686));
#683=APPLICATION_PROTOCOL_DEFINITION('international standard',
'automotive_design',2009,#684);
#684=APPLICATION_CONTEXT(
'Core Data for Automotive Mechanical Design Process');
#685=PRODUCT_CONTEXT('part definition',#684,'mechanical');
#686=PRODUCT('Shaft','05_Shaft_60x1300mm',$,(#685));
#687=PRESENTATION_STYLE_ASSIGNMENT((#688));
#688=SURFACE_STYLE_USAGE(.BOTH.,#691);
#689=SURFACE_STYLE_RENDERING_WITH_PROPERTIES($,#695,(#690));
#690=SURFACE_STYLE_TRANSPARENT(0.);
#691=SURFACE_SIDE_STYLE('',(#692,#689));
#692=SURFACE_STYLE_FILL_AREA(#693);
#693=FILL_AREA_STYLE('',(#694));
#694=FILL_AREA_STYLE_COLOUR('',#695);
#695=COLOUR_RGB('',0.87843137254902,0.874509803921569,0.858823529411765);
ENDSEC;
END-ISO-10303-21;
