ISO-10303-21;
HEADER;
/* Generated by software containing ST-Developer
 * from STEP Tools, Inc. (www.steptools.com) 
 */

FILE_DESCRIPTION(
/* description */ (''),
/* implementation_level */ '2;1');

FILE_NAME(
/* name */ '25_0,75_Wall_element.stp',
/* time_stamp */ '2024-03-12T14:32:39+01:00',
/* author */ ('ge49laz'),
/* organization */ (''),
/* preprocessor_version */ 'ST-DEVELOPER v19.2',
/* originating_system */ 'Autodesk Inventor 2024',
/* authorisation */ '');

FILE_SCHEMA (('AUTOMOTIVE_DESIGN { 1 0 10303 214 3 1 1 }'));
ENDSEC;

DATA;
#10=MECHANICAL_DESIGN_GEOMETRIC_PRESENTATION_REPRESENTATION('',(#13),#800);
#11=SHAPE_REPRESENTATION_RELATIONSHIP('SRR','None',#807,#12);
#12=ADVANCED_BREP_SHAPE_REPRESENTATION('',(#14),#799);
#13=STYLED_ITEM('',(#816),#14);
#14=MANIFOLD_SOLID_BREP('Volumenk\X\F6rper1',#459);
#15=FACE_BOUND('',#82,.T.);
#16=FACE_BOUND('',#83,.T.);
#17=FACE_BOUND('',#84,.T.);
#18=FACE_BOUND('',#85,.T.);
#19=FACE_BOUND('',#86,.T.);
#20=FACE_BOUND('',#87,.T.);
#21=FACE_BOUND('',#88,.T.);
#22=FACE_BOUND('',#89,.T.);
#23=FACE_BOUND('',#90,.T.);
#24=FACE_BOUND('',#91,.T.);
#25=FACE_BOUND('',#92,.T.);
#26=FACE_BOUND('',#93,.T.);
#27=FACE_BOUND('',#101,.T.);
#28=FACE_BOUND('',#102,.T.);
#29=FACE_BOUND('',#103,.T.);
#30=FACE_BOUND('',#104,.T.);
#31=FACE_BOUND('',#105,.T.);
#32=FACE_BOUND('',#106,.T.);
#33=FACE_BOUND('',#107,.T.);
#34=FACE_BOUND('',#108,.T.);
#35=FACE_BOUND('',#109,.T.);
#36=FACE_BOUND('',#110,.T.);
#37=FACE_BOUND('',#111,.T.);
#38=FACE_BOUND('',#112,.T.);
#39=PLANE('',#521);
#40=PLANE('',#522);
#41=PLANE('',#528);
#42=PLANE('',#533);
#43=PLANE('',#534);
#44=PLANE('',#535);
#45=FACE_OUTER_BOUND('',#67,.T.);
#46=FACE_OUTER_BOUND('',#68,.T.);
#47=FACE_OUTER_BOUND('',#69,.T.);
#48=FACE_OUTER_BOUND('',#70,.T.);
#49=FACE_OUTER_BOUND('',#71,.T.);
#50=FACE_OUTER_BOUND('',#72,.T.);
#51=FACE_OUTER_BOUND('',#73,.T.);
#52=FACE_OUTER_BOUND('',#74,.T.);
#53=FACE_OUTER_BOUND('',#75,.T.);
#54=FACE_OUTER_BOUND('',#76,.T.);
#55=FACE_OUTER_BOUND('',#77,.T.);
#56=FACE_OUTER_BOUND('',#78,.T.);
#57=FACE_OUTER_BOUND('',#79,.T.);
#58=FACE_OUTER_BOUND('',#80,.T.);
#59=FACE_OUTER_BOUND('',#81,.T.);
#60=FACE_OUTER_BOUND('',#94,.T.);
#61=FACE_OUTER_BOUND('',#95,.T.);
#62=FACE_OUTER_BOUND('',#96,.T.);
#63=FACE_OUTER_BOUND('',#97,.T.);
#64=FACE_OUTER_BOUND('',#98,.T.);
#65=FACE_OUTER_BOUND('',#99,.T.);
#66=FACE_OUTER_BOUND('',#100,.T.);
#67=EDGE_LOOP('',(#301,#302,#303,#304));
#68=EDGE_LOOP('',(#305,#306,#307,#308));
#69=EDGE_LOOP('',(#309,#310,#311,#312));
#70=EDGE_LOOP('',(#313,#314,#315,#316));
#71=EDGE_LOOP('',(#317,#318,#319,#320));
#72=EDGE_LOOP('',(#321,#322,#323,#324));
#73=EDGE_LOOP('',(#325,#326,#327,#328));
#74=EDGE_LOOP('',(#329,#330,#331,#332));
#75=EDGE_LOOP('',(#333,#334,#335,#336));
#76=EDGE_LOOP('',(#337,#338,#339,#340));
#77=EDGE_LOOP('',(#341,#342,#343,#344));
#78=EDGE_LOOP('',(#345,#346,#347,#348));
#79=EDGE_LOOP('',(#349,#350,#351,#352));
#80=EDGE_LOOP('',(#353,#354,#355,#356));
#81=EDGE_LOOP('',(#357,#358,#359,#360,#361,#362,#363,#364));
#82=EDGE_LOOP('',(#365));
#83=EDGE_LOOP('',(#366));
#84=EDGE_LOOP('',(#367));
#85=EDGE_LOOP('',(#368));
#86=EDGE_LOOP('',(#369));
#87=EDGE_LOOP('',(#370));
#88=EDGE_LOOP('',(#371));
#89=EDGE_LOOP('',(#372));
#90=EDGE_LOOP('',(#373));
#91=EDGE_LOOP('',(#374));
#92=EDGE_LOOP('',(#375));
#93=EDGE_LOOP('',(#376));
#94=EDGE_LOOP('',(#377,#378,#379,#380));
#95=EDGE_LOOP('',(#381,#382,#383,#384));
#96=EDGE_LOOP('',(#385,#386,#387,#388));
#97=EDGE_LOOP('',(#389,#390,#391,#392));
#98=EDGE_LOOP('',(#393,#394,#395,#396));
#99=EDGE_LOOP('',(#397,#398,#399,#400));
#100=EDGE_LOOP('',(#401,#402,#403,#404,#405,#406,#407,#408));
#101=EDGE_LOOP('',(#409));
#102=EDGE_LOOP('',(#410));
#103=EDGE_LOOP('',(#411));
#104=EDGE_LOOP('',(#412));
#105=EDGE_LOOP('',(#413));
#106=EDGE_LOOP('',(#414));
#107=EDGE_LOOP('',(#415));
#108=EDGE_LOOP('',(#416));
#109=EDGE_LOOP('',(#417));
#110=EDGE_LOOP('',(#418));
#111=EDGE_LOOP('',(#419));
#112=EDGE_LOOP('',(#420));
#113=LINE('',#679,#141);
#114=LINE('',#685,#142);
#115=LINE('',#691,#143);
#116=LINE('',#697,#144);
#117=LINE('',#703,#145);
#118=LINE('',#709,#146);
#119=LINE('',#715,#147);
#120=LINE('',#721,#148);
#121=LINE('',#727,#149);
#122=LINE('',#733,#150);
#123=LINE('',#739,#151);
#124=LINE('',#745,#152);
#125=LINE('',#752,#153);
#126=LINE('',#755,#154);
#127=LINE('',#758,#155);
#128=LINE('',#760,#156);
#129=LINE('',#761,#157);
#130=LINE('',#764,#158);
#131=LINE('',#768,#159);
#132=LINE('',#772,#160);
#133=LINE('',#778,#161);
#134=LINE('',#779,#162);
#135=LINE('',#782,#163);
#136=LINE('',#783,#164);
#137=LINE('',#787,#165);
#138=LINE('',#791,#166);
#139=LINE('',#793,#167);
#140=LINE('',#795,#168);
#141=VECTOR('',#542,4.5);
#142=VECTOR('',#549,2.25);
#143=VECTOR('',#556,2.25);
#144=VECTOR('',#563,2.25);
#145=VECTOR('',#570,2.25);
#146=VECTOR('',#577,2.25);
#147=VECTOR('',#584,4.5);
#148=VECTOR('',#591,4.5);
#149=VECTOR('',#598,2.25);
#150=VECTOR('',#605,2.25);
#151=VECTOR('',#612,2.25);
#152=VECTOR('',#619,5.75);
#153=VECTOR('',#626,10.);
#154=VECTOR('',#629,10.);
#155=VECTOR('',#632,10.);
#156=VECTOR('',#633,10.);
#157=VECTOR('',#634,10.);
#158=VECTOR('',#637,10.);
#159=VECTOR('',#640,10.);
#160=VECTOR('',#643,10.);
#161=VECTOR('',#650,10.);
#162=VECTOR('',#651,10.);
#163=VECTOR('',#654,10.);
#164=VECTOR('',#655,10.);
#165=VECTOR('',#660,10.);
#166=VECTOR('',#665,10.);
#167=VECTOR('',#668,10.);
#168=VECTOR('',#671,10.);
#169=CIRCLE('',#483,4.5);
#170=CIRCLE('',#484,4.5);
#171=CIRCLE('',#486,2.25);
#172=CIRCLE('',#487,2.25);
#173=CIRCLE('',#489,2.25);
#174=CIRCLE('',#490,2.25);
#175=CIRCLE('',#492,2.25);
#176=CIRCLE('',#493,2.25);
#177=CIRCLE('',#495,2.25);
#178=CIRCLE('',#496,2.25);
#179=CIRCLE('',#498,2.25);
#180=CIRCLE('',#499,2.25);
#181=CIRCLE('',#501,4.5);
#182=CIRCLE('',#502,4.5);
#183=CIRCLE('',#504,4.5);
#184=CIRCLE('',#505,4.5);
#185=CIRCLE('',#507,2.25);
#186=CIRCLE('',#508,2.25);
#187=CIRCLE('',#510,2.25);
#188=CIRCLE('',#511,2.25);
#189=CIRCLE('',#513,2.25);
#190=CIRCLE('',#514,2.25);
#191=CIRCLE('',#516,5.75);
#192=CIRCLE('',#517,5.75);
#193=CIRCLE('',#519,10.);
#194=CIRCLE('',#520,10.);
#195=CIRCLE('',#523,10.);
#196=CIRCLE('',#524,10.);
#197=CIRCLE('',#525,10.);
#198=CIRCLE('',#527,10.);
#199=CIRCLE('',#530,10.);
#200=CIRCLE('',#532,10.);
#201=VERTEX_POINT('',#676);
#202=VERTEX_POINT('',#678);
#203=VERTEX_POINT('',#682);
#204=VERTEX_POINT('',#684);
#205=VERTEX_POINT('',#688);
#206=VERTEX_POINT('',#690);
#207=VERTEX_POINT('',#694);
#208=VERTEX_POINT('',#696);
#209=VERTEX_POINT('',#700);
#210=VERTEX_POINT('',#702);
#211=VERTEX_POINT('',#706);
#212=VERTEX_POINT('',#708);
#213=VERTEX_POINT('',#712);
#214=VERTEX_POINT('',#714);
#215=VERTEX_POINT('',#718);
#216=VERTEX_POINT('',#720);
#217=VERTEX_POINT('',#724);
#218=VERTEX_POINT('',#726);
#219=VERTEX_POINT('',#730);
#220=VERTEX_POINT('',#732);
#221=VERTEX_POINT('',#736);
#222=VERTEX_POINT('',#738);
#223=VERTEX_POINT('',#742);
#224=VERTEX_POINT('',#744);
#225=VERTEX_POINT('',#748);
#226=VERTEX_POINT('',#749);
#227=VERTEX_POINT('',#751);
#228=VERTEX_POINT('',#753);
#229=VERTEX_POINT('',#757);
#230=VERTEX_POINT('',#759);
#231=VERTEX_POINT('',#763);
#232=VERTEX_POINT('',#765);
#233=VERTEX_POINT('',#767);
#234=VERTEX_POINT('',#769);
#235=VERTEX_POINT('',#771);
#236=VERTEX_POINT('',#775);
#237=VERTEX_POINT('',#776);
#238=VERTEX_POINT('',#781);
#239=VERTEX_POINT('',#785);
#240=VERTEX_POINT('',#789);
#241=EDGE_CURVE('',#201,#201,#169,.T.);
#242=EDGE_CURVE('',#201,#202,#113,.T.);
#243=EDGE_CURVE('',#202,#202,#170,.T.);
#244=EDGE_CURVE('',#203,#203,#171,.T.);
#245=EDGE_CURVE('',#203,#204,#114,.T.);
#246=EDGE_CURVE('',#204,#204,#172,.T.);
#247=EDGE_CURVE('',#205,#205,#173,.T.);
#248=EDGE_CURVE('',#205,#206,#115,.T.);
#249=EDGE_CURVE('',#206,#206,#174,.T.);
#250=EDGE_CURVE('',#207,#207,#175,.T.);
#251=EDGE_CURVE('',#207,#208,#116,.T.);
#252=EDGE_CURVE('',#208,#208,#176,.T.);
#253=EDGE_CURVE('',#209,#209,#177,.T.);
#254=EDGE_CURVE('',#209,#210,#117,.T.);
#255=EDGE_CURVE('',#210,#210,#178,.T.);
#256=EDGE_CURVE('',#211,#211,#179,.T.);
#257=EDGE_CURVE('',#211,#212,#118,.T.);
#258=EDGE_CURVE('',#212,#212,#180,.T.);
#259=EDGE_CURVE('',#213,#213,#181,.T.);
#260=EDGE_CURVE('',#213,#214,#119,.T.);
#261=EDGE_CURVE('',#214,#214,#182,.T.);
#262=EDGE_CURVE('',#215,#215,#183,.T.);
#263=EDGE_CURVE('',#215,#216,#120,.T.);
#264=EDGE_CURVE('',#216,#216,#184,.T.);
#265=EDGE_CURVE('',#217,#217,#185,.T.);
#266=EDGE_CURVE('',#217,#218,#121,.T.);
#267=EDGE_CURVE('',#218,#218,#186,.T.);
#268=EDGE_CURVE('',#219,#219,#187,.T.);
#269=EDGE_CURVE('',#219,#220,#122,.T.);
#270=EDGE_CURVE('',#220,#220,#188,.T.);
#271=EDGE_CURVE('',#221,#221,#189,.T.);
#272=EDGE_CURVE('',#221,#222,#123,.T.);
#273=EDGE_CURVE('',#222,#222,#190,.T.);
#274=EDGE_CURVE('',#223,#223,#191,.T.);
#275=EDGE_CURVE('',#223,#224,#124,.T.);
#276=EDGE_CURVE('',#224,#224,#192,.T.);
#277=EDGE_CURVE('',#225,#226,#193,.T.);
#278=EDGE_CURVE('',#226,#227,#125,.T.);
#279=EDGE_CURVE('',#227,#228,#194,.T.);
#280=EDGE_CURVE('',#228,#225,#126,.T.);
#281=EDGE_CURVE('',#228,#229,#127,.T.);
#282=EDGE_CURVE('',#230,#229,#128,.T.);
#283=EDGE_CURVE('',#230,#225,#129,.T.);
#284=EDGE_CURVE('',#231,#227,#130,.T.);
#285=EDGE_CURVE('',#232,#231,#195,.T.);
#286=EDGE_CURVE('',#233,#232,#131,.T.);
#287=EDGE_CURVE('',#234,#233,#196,.T.);
#288=EDGE_CURVE('',#235,#234,#132,.T.);
#289=EDGE_CURVE('',#229,#235,#197,.T.);
#290=EDGE_CURVE('',#236,#237,#198,.T.);
#291=EDGE_CURVE('',#237,#232,#133,.T.);
#292=EDGE_CURVE('',#231,#236,#134,.T.);
#293=EDGE_CURVE('',#237,#238,#135,.T.);
#294=EDGE_CURVE('',#233,#238,#136,.T.);
#295=EDGE_CURVE('',#238,#239,#199,.T.);
#296=EDGE_CURVE('',#239,#234,#137,.T.);
#297=EDGE_CURVE('',#240,#230,#200,.T.);
#298=EDGE_CURVE('',#235,#240,#138,.T.);
#299=EDGE_CURVE('',#239,#240,#139,.T.);
#300=EDGE_CURVE('',#226,#236,#140,.T.);
#301=ORIENTED_EDGE('',*,*,#241,.F.);
#302=ORIENTED_EDGE('',*,*,#242,.T.);
#303=ORIENTED_EDGE('',*,*,#243,.F.);
#304=ORIENTED_EDGE('',*,*,#242,.F.);
#305=ORIENTED_EDGE('',*,*,#244,.F.);
#306=ORIENTED_EDGE('',*,*,#245,.T.);
#307=ORIENTED_EDGE('',*,*,#246,.F.);
#308=ORIENTED_EDGE('',*,*,#245,.F.);
#309=ORIENTED_EDGE('',*,*,#247,.F.);
#310=ORIENTED_EDGE('',*,*,#248,.T.);
#311=ORIENTED_EDGE('',*,*,#249,.F.);
#312=ORIENTED_EDGE('',*,*,#248,.F.);
#313=ORIENTED_EDGE('',*,*,#250,.F.);
#314=ORIENTED_EDGE('',*,*,#251,.T.);
#315=ORIENTED_EDGE('',*,*,#252,.F.);
#316=ORIENTED_EDGE('',*,*,#251,.F.);
#317=ORIENTED_EDGE('',*,*,#253,.F.);
#318=ORIENTED_EDGE('',*,*,#254,.T.);
#319=ORIENTED_EDGE('',*,*,#255,.F.);
#320=ORIENTED_EDGE('',*,*,#254,.F.);
#321=ORIENTED_EDGE('',*,*,#256,.F.);
#322=ORIENTED_EDGE('',*,*,#257,.T.);
#323=ORIENTED_EDGE('',*,*,#258,.F.);
#324=ORIENTED_EDGE('',*,*,#257,.F.);
#325=ORIENTED_EDGE('',*,*,#259,.F.);
#326=ORIENTED_EDGE('',*,*,#260,.T.);
#327=ORIENTED_EDGE('',*,*,#261,.F.);
#328=ORIENTED_EDGE('',*,*,#260,.F.);
#329=ORIENTED_EDGE('',*,*,#262,.F.);
#330=ORIENTED_EDGE('',*,*,#263,.T.);
#331=ORIENTED_EDGE('',*,*,#264,.F.);
#332=ORIENTED_EDGE('',*,*,#263,.F.);
#333=ORIENTED_EDGE('',*,*,#265,.F.);
#334=ORIENTED_EDGE('',*,*,#266,.T.);
#335=ORIENTED_EDGE('',*,*,#267,.F.);
#336=ORIENTED_EDGE('',*,*,#266,.F.);
#337=ORIENTED_EDGE('',*,*,#268,.F.);
#338=ORIENTED_EDGE('',*,*,#269,.T.);
#339=ORIENTED_EDGE('',*,*,#270,.F.);
#340=ORIENTED_EDGE('',*,*,#269,.F.);
#341=ORIENTED_EDGE('',*,*,#271,.F.);
#342=ORIENTED_EDGE('',*,*,#272,.T.);
#343=ORIENTED_EDGE('',*,*,#273,.F.);
#344=ORIENTED_EDGE('',*,*,#272,.F.);
#345=ORIENTED_EDGE('',*,*,#274,.F.);
#346=ORIENTED_EDGE('',*,*,#275,.T.);
#347=ORIENTED_EDGE('',*,*,#276,.F.);
#348=ORIENTED_EDGE('',*,*,#275,.F.);
#349=ORIENTED_EDGE('',*,*,#277,.T.);
#350=ORIENTED_EDGE('',*,*,#278,.T.);
#351=ORIENTED_EDGE('',*,*,#279,.T.);
#352=ORIENTED_EDGE('',*,*,#280,.T.);
#353=ORIENTED_EDGE('',*,*,#280,.F.);
#354=ORIENTED_EDGE('',*,*,#281,.T.);
#355=ORIENTED_EDGE('',*,*,#282,.F.);
#356=ORIENTED_EDGE('',*,*,#283,.T.);
#357=ORIENTED_EDGE('',*,*,#279,.F.);
#358=ORIENTED_EDGE('',*,*,#284,.F.);
#359=ORIENTED_EDGE('',*,*,#285,.F.);
#360=ORIENTED_EDGE('',*,*,#286,.F.);
#361=ORIENTED_EDGE('',*,*,#287,.F.);
#362=ORIENTED_EDGE('',*,*,#288,.F.);
#363=ORIENTED_EDGE('',*,*,#289,.F.);
#364=ORIENTED_EDGE('',*,*,#281,.F.);
#365=ORIENTED_EDGE('',*,*,#243,.T.);
#366=ORIENTED_EDGE('',*,*,#246,.T.);
#367=ORIENTED_EDGE('',*,*,#249,.T.);
#368=ORIENTED_EDGE('',*,*,#252,.T.);
#369=ORIENTED_EDGE('',*,*,#255,.T.);
#370=ORIENTED_EDGE('',*,*,#258,.T.);
#371=ORIENTED_EDGE('',*,*,#261,.T.);
#372=ORIENTED_EDGE('',*,*,#264,.T.);
#373=ORIENTED_EDGE('',*,*,#267,.T.);
#374=ORIENTED_EDGE('',*,*,#270,.T.);
#375=ORIENTED_EDGE('',*,*,#273,.T.);
#376=ORIENTED_EDGE('',*,*,#276,.T.);
#377=ORIENTED_EDGE('',*,*,#290,.T.);
#378=ORIENTED_EDGE('',*,*,#291,.T.);
#379=ORIENTED_EDGE('',*,*,#285,.T.);
#380=ORIENTED_EDGE('',*,*,#292,.T.);
#381=ORIENTED_EDGE('',*,*,#291,.F.);
#382=ORIENTED_EDGE('',*,*,#293,.T.);
#383=ORIENTED_EDGE('',*,*,#294,.F.);
#384=ORIENTED_EDGE('',*,*,#286,.T.);
#385=ORIENTED_EDGE('',*,*,#295,.T.);
#386=ORIENTED_EDGE('',*,*,#296,.T.);
#387=ORIENTED_EDGE('',*,*,#287,.T.);
#388=ORIENTED_EDGE('',*,*,#294,.T.);
#389=ORIENTED_EDGE('',*,*,#297,.T.);
#390=ORIENTED_EDGE('',*,*,#282,.T.);
#391=ORIENTED_EDGE('',*,*,#289,.T.);
#392=ORIENTED_EDGE('',*,*,#298,.T.);
#393=ORIENTED_EDGE('',*,*,#296,.F.);
#394=ORIENTED_EDGE('',*,*,#299,.T.);
#395=ORIENTED_EDGE('',*,*,#298,.F.);
#396=ORIENTED_EDGE('',*,*,#288,.T.);
#397=ORIENTED_EDGE('',*,*,#278,.F.);
#398=ORIENTED_EDGE('',*,*,#300,.T.);
#399=ORIENTED_EDGE('',*,*,#292,.F.);
#400=ORIENTED_EDGE('',*,*,#284,.T.);
#401=ORIENTED_EDGE('',*,*,#277,.F.);
#402=ORIENTED_EDGE('',*,*,#283,.F.);
#403=ORIENTED_EDGE('',*,*,#297,.F.);
#404=ORIENTED_EDGE('',*,*,#299,.F.);
#405=ORIENTED_EDGE('',*,*,#295,.F.);
#406=ORIENTED_EDGE('',*,*,#293,.F.);
#407=ORIENTED_EDGE('',*,*,#290,.F.);
#408=ORIENTED_EDGE('',*,*,#300,.F.);
#409=ORIENTED_EDGE('',*,*,#241,.T.);
#410=ORIENTED_EDGE('',*,*,#244,.T.);
#411=ORIENTED_EDGE('',*,*,#247,.T.);
#412=ORIENTED_EDGE('',*,*,#250,.T.);
#413=ORIENTED_EDGE('',*,*,#253,.T.);
#414=ORIENTED_EDGE('',*,*,#256,.T.);
#415=ORIENTED_EDGE('',*,*,#259,.T.);
#416=ORIENTED_EDGE('',*,*,#262,.T.);
#417=ORIENTED_EDGE('',*,*,#265,.T.);
#418=ORIENTED_EDGE('',*,*,#268,.T.);
#419=ORIENTED_EDGE('',*,*,#271,.T.);
#420=ORIENTED_EDGE('',*,*,#274,.T.);
#421=CYLINDRICAL_SURFACE('',#482,4.5);
#422=CYLINDRICAL_SURFACE('',#485,2.25);
#423=CYLINDRICAL_SURFACE('',#488,2.25);
#424=CYLINDRICAL_SURFACE('',#491,2.25);
#425=CYLINDRICAL_SURFACE('',#494,2.25);
#426=CYLINDRICAL_SURFACE('',#497,2.25);
#427=CYLINDRICAL_SURFACE('',#500,4.5);
#428=CYLINDRICAL_SURFACE('',#503,4.5);
#429=CYLINDRICAL_SURFACE('',#506,2.25);
#430=CYLINDRICAL_SURFACE('',#509,2.25);
#431=CYLINDRICAL_SURFACE('',#512,2.25);
#432=CYLINDRICAL_SURFACE('',#515,5.75);
#433=CYLINDRICAL_SURFACE('',#518,10.);
#434=CYLINDRICAL_SURFACE('',#526,10.);
#435=CYLINDRICAL_SURFACE('',#529,10.);
#436=CYLINDRICAL_SURFACE('',#531,10.);
#437=ADVANCED_FACE('',(#45),#421,.F.);
#438=ADVANCED_FACE('',(#46),#422,.F.);
#439=ADVANCED_FACE('',(#47),#423,.F.);
#440=ADVANCED_FACE('',(#48),#424,.F.);
#441=ADVANCED_FACE('',(#49),#425,.F.);
#442=ADVANCED_FACE('',(#50),#426,.F.);
#443=ADVANCED_FACE('',(#51),#427,.F.);
#444=ADVANCED_FACE('',(#52),#428,.F.);
#445=ADVANCED_FACE('',(#53),#429,.F.);
#446=ADVANCED_FACE('',(#54),#430,.F.);
#447=ADVANCED_FACE('',(#55),#431,.F.);
#448=ADVANCED_FACE('',(#56),#432,.F.);
#449=ADVANCED_FACE('',(#57),#433,.T.);
#450=ADVANCED_FACE('',(#58),#39,.T.);
#451=ADVANCED_FACE('',(#59,#15,#16,#17,#18,#19,#20,#21,#22,#23,#24,#25,
#26),#40,.F.);
#452=ADVANCED_FACE('',(#60),#434,.T.);
#453=ADVANCED_FACE('',(#61),#41,.T.);
#454=ADVANCED_FACE('',(#62),#435,.T.);
#455=ADVANCED_FACE('',(#63),#436,.T.);
#456=ADVANCED_FACE('',(#64),#42,.T.);
#457=ADVANCED_FACE('',(#65),#43,.T.);
#458=ADVANCED_FACE('',(#66,#27,#28,#29,#30,#31,#32,#33,#34,#35,#36,#37,
#38),#44,.T.);
#459=CLOSED_SHELL('',(#437,#438,#439,#440,#441,#442,#443,#444,#445,#446,
#447,#448,#449,#450,#451,#452,#453,#454,#455,#456,#457,#458));
#460=DERIVED_UNIT_ELEMENT(#463,1.);
#461=DERIVED_UNIT_ELEMENT(#802,-3.);
#462=DIMENSIONAL_EXPONENTS(0.,1.,0.,0.,0.,0.,0.);
#463=(
CONVERSION_BASED_UNIT('gram',#465)
MASS_UNIT()
NAMED_UNIT(#462)
);
#464=(
MASS_UNIT()
NAMED_UNIT(*)
SI_UNIT(.KILO.,.GRAM.)
);
#465=MASS_MEASURE_WITH_UNIT(MASS_MEASURE(0.001),#464);
#466=DERIVED_UNIT((#460,#461));
#467=MEASURE_REPRESENTATION_ITEM('density measure',
POSITIVE_RATIO_MEASURE(1.),#466);
#468=PROPERTY_DEFINITION_REPRESENTATION(#473,#470);
#469=PROPERTY_DEFINITION_REPRESENTATION(#474,#471);
#470=REPRESENTATION('material name',(#472),#799);
#471=REPRESENTATION('density',(#467),#799);
#472=DESCRIPTIVE_REPRESENTATION_ITEM('Generisch','Generisch');
#473=PROPERTY_DEFINITION('material property','material name',#809);
#474=PROPERTY_DEFINITION('material property','density of part',#809);
#475=DATE_TIME_ROLE('creation_date');
#476=APPLIED_DATE_AND_TIME_ASSIGNMENT(#477,#475,(#809));
#477=DATE_AND_TIME(#478,#479);
#478=CALENDAR_DATE(2023,31,10);
#479=LOCAL_TIME(0,0,0.,#480);
#480=COORDINATED_UNIVERSAL_TIME_OFFSET(0,0,.BEHIND.);
#481=AXIS2_PLACEMENT_3D('',#674,#536,#537);
#482=AXIS2_PLACEMENT_3D('',#675,#538,#539);
#483=AXIS2_PLACEMENT_3D('',#677,#540,#541);
#484=AXIS2_PLACEMENT_3D('',#680,#543,#544);
#485=AXIS2_PLACEMENT_3D('',#681,#545,#546);
#486=AXIS2_PLACEMENT_3D('',#683,#547,#548);
#487=AXIS2_PLACEMENT_3D('',#686,#550,#551);
#488=AXIS2_PLACEMENT_3D('',#687,#552,#553);
#489=AXIS2_PLACEMENT_3D('',#689,#554,#555);
#490=AXIS2_PLACEMENT_3D('',#692,#557,#558);
#491=AXIS2_PLACEMENT_3D('',#693,#559,#560);
#492=AXIS2_PLACEMENT_3D('',#695,#561,#562);
#493=AXIS2_PLACEMENT_3D('',#698,#564,#565);
#494=AXIS2_PLACEMENT_3D('',#699,#566,#567);
#495=AXIS2_PLACEMENT_3D('',#701,#568,#569);
#496=AXIS2_PLACEMENT_3D('',#704,#571,#572);
#497=AXIS2_PLACEMENT_3D('',#705,#573,#574);
#498=AXIS2_PLACEMENT_3D('',#707,#575,#576);
#499=AXIS2_PLACEMENT_3D('',#710,#578,#579);
#500=AXIS2_PLACEMENT_3D('',#711,#580,#581);
#501=AXIS2_PLACEMENT_3D('',#713,#582,#583);
#502=AXIS2_PLACEMENT_3D('',#716,#585,#586);
#503=AXIS2_PLACEMENT_3D('',#717,#587,#588);
#504=AXIS2_PLACEMENT_3D('',#719,#589,#590);
#505=AXIS2_PLACEMENT_3D('',#722,#592,#593);
#506=AXIS2_PLACEMENT_3D('',#723,#594,#595);
#507=AXIS2_PLACEMENT_3D('',#725,#596,#597);
#508=AXIS2_PLACEMENT_3D('',#728,#599,#600);
#509=AXIS2_PLACEMENT_3D('',#729,#601,#602);
#510=AXIS2_PLACEMENT_3D('',#731,#603,#604);
#511=AXIS2_PLACEMENT_3D('',#734,#606,#607);
#512=AXIS2_PLACEMENT_3D('',#735,#608,#609);
#513=AXIS2_PLACEMENT_3D('',#737,#610,#611);
#514=AXIS2_PLACEMENT_3D('',#740,#613,#614);
#515=AXIS2_PLACEMENT_3D('',#741,#615,#616);
#516=AXIS2_PLACEMENT_3D('',#743,#617,#618);
#517=AXIS2_PLACEMENT_3D('',#746,#620,#621);
#518=AXIS2_PLACEMENT_3D('',#747,#622,#623);
#519=AXIS2_PLACEMENT_3D('',#750,#624,#625);
#520=AXIS2_PLACEMENT_3D('',#754,#627,#628);
#521=AXIS2_PLACEMENT_3D('',#756,#630,#631);
#522=AXIS2_PLACEMENT_3D('',#762,#635,#636);
#523=AXIS2_PLACEMENT_3D('',#766,#638,#639);
#524=AXIS2_PLACEMENT_3D('',#770,#641,#642);
#525=AXIS2_PLACEMENT_3D('',#773,#644,#645);
#526=AXIS2_PLACEMENT_3D('',#774,#646,#647);
#527=AXIS2_PLACEMENT_3D('',#777,#648,#649);
#528=AXIS2_PLACEMENT_3D('',#780,#652,#653);
#529=AXIS2_PLACEMENT_3D('',#784,#656,#657);
#530=AXIS2_PLACEMENT_3D('',#786,#658,#659);
#531=AXIS2_PLACEMENT_3D('',#788,#661,#662);
#532=AXIS2_PLACEMENT_3D('',#790,#663,#664);
#533=AXIS2_PLACEMENT_3D('',#792,#666,#667);
#534=AXIS2_PLACEMENT_3D('',#794,#669,#670);
#535=AXIS2_PLACEMENT_3D('',#796,#672,#673);
#536=DIRECTION('axis',(0.,0.,1.));
#537=DIRECTION('refdir',(1.,0.,0.));
#538=DIRECTION('center_axis',(0.,0.,1.));
#539=DIRECTION('ref_axis',(1.,0.,0.));
#540=DIRECTION('center_axis',(0.,0.,-1.));
#541=DIRECTION('ref_axis',(1.,0.,0.));
#542=DIRECTION('',(0.,0.,-1.));
#543=DIRECTION('center_axis',(0.,0.,1.));
#544=DIRECTION('ref_axis',(1.,0.,0.));
#545=DIRECTION('center_axis',(0.,0.,1.));
#546=DIRECTION('ref_axis',(1.,0.,0.));
#547=DIRECTION('center_axis',(0.,0.,-1.));
#548=DIRECTION('ref_axis',(1.,0.,0.));
#549=DIRECTION('',(0.,0.,-1.));
#550=DIRECTION('center_axis',(0.,0.,1.));
#551=DIRECTION('ref_axis',(1.,0.,0.));
#552=DIRECTION('center_axis',(0.,0.,1.));
#553=DIRECTION('ref_axis',(1.,0.,0.));
#554=DIRECTION('center_axis',(0.,0.,-1.));
#555=DIRECTION('ref_axis',(1.,0.,0.));
#556=DIRECTION('',(0.,0.,-1.));
#557=DIRECTION('center_axis',(0.,0.,1.));
#558=DIRECTION('ref_axis',(1.,0.,0.));
#559=DIRECTION('center_axis',(0.,0.,1.));
#560=DIRECTION('ref_axis',(1.,0.,0.));
#561=DIRECTION('center_axis',(0.,0.,-1.));
#562=DIRECTION('ref_axis',(1.,0.,0.));
#563=DIRECTION('',(0.,0.,-1.));
#564=DIRECTION('center_axis',(0.,0.,1.));
#565=DIRECTION('ref_axis',(1.,0.,0.));
#566=DIRECTION('center_axis',(0.,0.,1.));
#567=DIRECTION('ref_axis',(1.,0.,0.));
#568=DIRECTION('center_axis',(0.,0.,-1.));
#569=DIRECTION('ref_axis',(1.,0.,0.));
#570=DIRECTION('',(0.,0.,-1.));
#571=DIRECTION('center_axis',(0.,0.,1.));
#572=DIRECTION('ref_axis',(1.,0.,0.));
#573=DIRECTION('center_axis',(0.,0.,1.));
#574=DIRECTION('ref_axis',(1.,0.,0.));
#575=DIRECTION('center_axis',(0.,0.,-1.));
#576=DIRECTION('ref_axis',(1.,0.,0.));
#577=DIRECTION('',(0.,0.,-1.));
#578=DIRECTION('center_axis',(0.,0.,1.));
#579=DIRECTION('ref_axis',(1.,0.,0.));
#580=DIRECTION('center_axis',(0.,0.,1.));
#581=DIRECTION('ref_axis',(1.,0.,0.));
#582=DIRECTION('center_axis',(0.,0.,-1.));
#583=DIRECTION('ref_axis',(1.,0.,0.));
#584=DIRECTION('',(0.,0.,-1.));
#585=DIRECTION('center_axis',(0.,0.,1.));
#586=DIRECTION('ref_axis',(1.,0.,0.));
#587=DIRECTION('center_axis',(0.,0.,1.));
#588=DIRECTION('ref_axis',(1.,0.,0.));
#589=DIRECTION('center_axis',(0.,0.,-1.));
#590=DIRECTION('ref_axis',(1.,0.,0.));
#591=DIRECTION('',(0.,0.,-1.));
#592=DIRECTION('center_axis',(0.,0.,1.));
#593=DIRECTION('ref_axis',(1.,0.,0.));
#594=DIRECTION('center_axis',(0.,0.,1.));
#595=DIRECTION('ref_axis',(1.,0.,0.));
#596=DIRECTION('center_axis',(0.,0.,-1.));
#597=DIRECTION('ref_axis',(1.,0.,0.));
#598=DIRECTION('',(0.,0.,-1.));
#599=DIRECTION('center_axis',(0.,0.,1.));
#600=DIRECTION('ref_axis',(1.,0.,0.));
#601=DIRECTION('center_axis',(0.,0.,1.));
#602=DIRECTION('ref_axis',(1.,0.,0.));
#603=DIRECTION('center_axis',(0.,0.,-1.));
#604=DIRECTION('ref_axis',(1.,0.,0.));
#605=DIRECTION('',(0.,0.,-1.));
#606=DIRECTION('center_axis',(0.,0.,1.));
#607=DIRECTION('ref_axis',(1.,0.,0.));
#608=DIRECTION('center_axis',(0.,0.,1.));
#609=DIRECTION('ref_axis',(1.,0.,0.));
#610=DIRECTION('center_axis',(0.,0.,-1.));
#611=DIRECTION('ref_axis',(1.,0.,0.));
#612=DIRECTION('',(0.,0.,-1.));
#613=DIRECTION('center_axis',(0.,0.,1.));
#614=DIRECTION('ref_axis',(1.,0.,0.));
#615=DIRECTION('center_axis',(0.,0.,1.));
#616=DIRECTION('ref_axis',(1.,0.,0.));
#617=DIRECTION('center_axis',(0.,0.,-1.));
#618=DIRECTION('ref_axis',(1.,0.,0.));
#619=DIRECTION('',(0.,0.,-1.));
#620=DIRECTION('center_axis',(0.,0.,1.));
#621=DIRECTION('ref_axis',(1.,0.,0.));
#622=DIRECTION('center_axis',(0.,0.,1.));
#623=DIRECTION('ref_axis',(0.707106781186547,0.707106781186547,0.));
#624=DIRECTION('center_axis',(0.,0.,-1.));
#625=DIRECTION('ref_axis',(0.707106781186547,0.707106781186547,0.));
#626=DIRECTION('',(0.,0.,-1.));
#627=DIRECTION('center_axis',(0.,0.,1.));
#628=DIRECTION('ref_axis',(0.707106781186547,0.707106781186547,0.));
#629=DIRECTION('',(0.,0.,1.));
#630=DIRECTION('center_axis',(-3.52918577364288E-16,1.,0.));
#631=DIRECTION('ref_axis',(0.,0.,1.));
#632=DIRECTION('',(-1.,-3.52918577364288E-16,0.));
#633=DIRECTION('',(0.,0.,-1.));
#634=DIRECTION('',(1.,3.52918577364288E-16,0.));
#635=DIRECTION('center_axis',(0.,0.,1.));
#636=DIRECTION('ref_axis',(1.,0.,0.));
#637=DIRECTION('',(-1.31581988103722E-16,1.,0.));
#638=DIRECTION('center_axis',(0.,0.,1.));
#639=DIRECTION('ref_axis',(0.707106781186548,-0.707106781186547,0.));
#640=DIRECTION('',(1.,0.,0.));
#641=DIRECTION('center_axis',(0.,0.,1.));
#642=DIRECTION('ref_axis',(-0.616099163430133,-0.787668598346214,0.));
#643=DIRECTION('',(0.24084364164138,-0.970563929002576,0.));
#644=DIRECTION('center_axis',(0.,0.,1.));
#645=DIRECTION('ref_axis',(-0.787668598346216,0.616099163430131,0.));
#646=DIRECTION('center_axis',(0.,0.,1.));
#647=DIRECTION('ref_axis',(0.707106781186548,-0.707106781186547,0.));
#648=DIRECTION('center_axis',(0.,0.,-1.));
#649=DIRECTION('ref_axis',(0.707106781186548,-0.707106781186547,0.));
#650=DIRECTION('',(0.,0.,-1.));
#651=DIRECTION('',(0.,0.,1.));
#652=DIRECTION('center_axis',(0.,-1.,0.));
#653=DIRECTION('ref_axis',(0.,0.,-1.));
#654=DIRECTION('',(-1.,0.,0.));
#655=DIRECTION('',(0.,0.,1.));
#656=DIRECTION('center_axis',(0.,0.,1.));
#657=DIRECTION('ref_axis',(-0.616099163430133,-0.787668598346214,0.));
#658=DIRECTION('center_axis',(0.,0.,-1.));
#659=DIRECTION('ref_axis',(-0.616099163430133,-0.787668598346214,0.));
#660=DIRECTION('',(0.,0.,-1.));
#661=DIRECTION('center_axis',(0.,0.,1.));
#662=DIRECTION('ref_axis',(-0.787668598346216,0.616099163430131,0.));
#663=DIRECTION('center_axis',(0.,0.,-1.));
#664=DIRECTION('ref_axis',(-0.787668598346216,0.616099163430131,0.));
#665=DIRECTION('',(0.,0.,1.));
#666=DIRECTION('center_axis',(-0.970563929002576,-0.24084364164138,0.));
#667=DIRECTION('ref_axis',(0.,0.,1.));
#668=DIRECTION('',(-0.24084364164138,0.970563929002576,0.));
#669=DIRECTION('center_axis',(1.,1.31581988103722E-16,0.));
#670=DIRECTION('ref_axis',(0.,0.,-1.));
#671=DIRECTION('',(1.31581988103722E-16,-1.,0.));
#672=DIRECTION('center_axis',(0.,0.,1.));
#673=DIRECTION('ref_axis',(1.,0.,0.));
#674=CARTESIAN_POINT('',(0.,0.,0.));
#675=CARTESIAN_POINT('Origin',(10.5298557726445,21.1623288604489,-402.276446376349));
#676=CARTESIAN_POINT('',(6.02985577264453,21.1623288604489,0.750000000000028));
#677=CARTESIAN_POINT('Origin',(10.5298557726445,21.1623288604489,0.750000000000028));
#678=CARTESIAN_POINT('',(6.02985577264453,21.1623288604489,0.));
#679=CARTESIAN_POINT('',(6.02985577264453,21.1623288604489,-402.276446376349));
#680=CARTESIAN_POINT('Origin',(10.5298557726445,21.1623288604489,0.));
#681=CARTESIAN_POINT('Origin',(220.,81.2803300858899,-402.276446376349));
#682=CARTESIAN_POINT('',(217.75,81.2803300858899,0.750000000000028));
#683=CARTESIAN_POINT('Origin',(220.,81.2803300858899,0.750000000000028));
#684=CARTESIAN_POINT('',(217.75,81.2803300858899,0.));
#685=CARTESIAN_POINT('',(217.75,81.2803300858899,-402.276446376349));
#686=CARTESIAN_POINT('Origin',(220.,81.2803300858899,0.));
#687=CARTESIAN_POINT('Origin',(220.,46.2803300858899,-402.276446376349));
#688=CARTESIAN_POINT('',(217.75,46.2803300858899,0.750000000000028));
#689=CARTESIAN_POINT('Origin',(220.,46.2803300858899,0.750000000000028));
#690=CARTESIAN_POINT('',(217.75,46.2803300858899,0.));
#691=CARTESIAN_POINT('',(217.75,46.2803300858899,-402.276446376349));
#692=CARTESIAN_POINT('Origin',(220.,46.2803300858899,0.));
#693=CARTESIAN_POINT('Origin',(57.1075673400092,194.400039589484,-402.276446376349));
#694=CARTESIAN_POINT('',(54.8575673400092,194.400039589484,0.750000000000028));
#695=CARTESIAN_POINT('Origin',(57.1075673400092,194.400039589484,0.750000000000028));
#696=CARTESIAN_POINT('',(54.8575673400092,194.400039589484,0.));
#697=CARTESIAN_POINT('',(54.8575673400092,194.400039589484,-402.276446376349));
#698=CARTESIAN_POINT('Origin',(57.1075673400092,194.400039589484,0.));
#699=CARTESIAN_POINT('Origin',(123.328636804429,159.189672380542,-402.276446376349));
#700=CARTESIAN_POINT('',(121.078636804429,159.189672380542,0.750000000000028));
#701=CARTESIAN_POINT('Origin',(123.328636804429,159.189672380542,0.750000000000028));
#702=CARTESIAN_POINT('',(121.078636804429,159.189672380542,0.));
#703=CARTESIAN_POINT('',(121.078636804429,159.189672380542,-402.276446376349));
#704=CARTESIAN_POINT('Origin',(123.328636804429,159.189672380542,0.));
#705=CARTESIAN_POINT('Origin',(189.549706268848,123.9793051716,-402.276446376349));
#706=CARTESIAN_POINT('',(187.299706268848,123.9793051716,0.750000000000028));
#707=CARTESIAN_POINT('Origin',(189.549706268848,123.9793051716,0.750000000000028));
#708=CARTESIAN_POINT('',(187.299706268848,123.9793051716,0.));
#709=CARTESIAN_POINT('',(187.299706268848,123.9793051716,-402.276446376349));
#710=CARTESIAN_POINT('Origin',(189.549706268848,123.9793051716,0.));
#711=CARTESIAN_POINT('Origin',(-40.,225.,-402.276446376349));
#712=CARTESIAN_POINT('',(-44.5,225.,0.750000000000028));
#713=CARTESIAN_POINT('Origin',(-40.,225.,0.750000000000028));
#714=CARTESIAN_POINT('',(-44.5,225.,0.));
#715=CARTESIAN_POINT('',(-44.5,225.,-402.276446376349));
#716=CARTESIAN_POINT('Origin',(-40.,225.,0.));
#717=CARTESIAN_POINT('Origin',(220.,225.,-402.276446376349));
#718=CARTESIAN_POINT('',(215.5,225.,0.750000000000028));
#719=CARTESIAN_POINT('Origin',(220.,225.,0.750000000000028));
#720=CARTESIAN_POINT('',(215.5,225.,0.));
#721=CARTESIAN_POINT('',(215.5,225.,-402.276446376349));
#722=CARTESIAN_POINT('Origin',(220.,225.,0.));
#723=CARTESIAN_POINT('Origin',(74.317,10.,-402.276446376349));
#724=CARTESIAN_POINT('',(72.067,10.,0.750000000000028));
#725=CARTESIAN_POINT('Origin',(74.317,10.,0.750000000000028));
#726=CARTESIAN_POINT('',(72.067,10.,0.));
#727=CARTESIAN_POINT('',(72.067,10.,-402.276446376349));
#728=CARTESIAN_POINT('Origin',(74.317,10.,0.));
#729=CARTESIAN_POINT('Origin',(128.25,15.,-402.276446376349));
#730=CARTESIAN_POINT('',(126.,15.,0.750000000000028));
#731=CARTESIAN_POINT('Origin',(128.25,15.,0.750000000000028));
#732=CARTESIAN_POINT('',(126.,15.,0.));
#733=CARTESIAN_POINT('',(126.,15.,-402.276446376349));
#734=CARTESIAN_POINT('Origin',(128.25,15.,0.));
#735=CARTESIAN_POINT('Origin',(168.25,15.,-402.276446376349));
#736=CARTESIAN_POINT('',(166.,15.,0.750000000000028));
#737=CARTESIAN_POINT('Origin',(168.25,15.,0.750000000000028));
#738=CARTESIAN_POINT('',(166.,15.,0.));
#739=CARTESIAN_POINT('',(166.,15.,-402.276446376349));
#740=CARTESIAN_POINT('Origin',(168.25,15.,0.));
#741=CARTESIAN_POINT('Origin',(218.25,15.,-402.276446376349));
#742=CARTESIAN_POINT('',(212.5,15.,0.750000000000028));
#743=CARTESIAN_POINT('Origin',(218.25,15.,0.750000000000028));
#744=CARTESIAN_POINT('',(212.5,15.,0.));
#745=CARTESIAN_POINT('',(212.5,15.,-402.276446376349));
#746=CARTESIAN_POINT('Origin',(218.25,15.,0.));
#747=CARTESIAN_POINT('Origin',(225.,260.,0.));
#748=CARTESIAN_POINT('',(225.,270.,0.75));
#749=CARTESIAN_POINT('',(235.,260.,0.75));
#750=CARTESIAN_POINT('Origin',(225.,260.,0.75));
#751=CARTESIAN_POINT('',(235.,260.,0.));
#752=CARTESIAN_POINT('',(235.,260.,0.));
#753=CARTESIAN_POINT('',(225.,270.,0.));
#754=CARTESIAN_POINT('Origin',(225.,260.,0.));
#755=CARTESIAN_POINT('',(225.,270.,0.));
#756=CARTESIAN_POINT('Origin',(-67.0000000000001,270.,0.));
#757=CARTESIAN_POINT('',(-54.2152301918272,270.,0.));
#758=CARTESIAN_POINT('',(235.,270.,0.));
#759=CARTESIAN_POINT('',(-54.2152301918272,270.,0.75));
#760=CARTESIAN_POINT('',(-54.2152301918272,270.,0.));
#761=CARTESIAN_POINT('',(235.,270.,0.75));
#762=CARTESIAN_POINT('Origin',(98.702803794833,143.334955287521,0.));
#763=CARTESIAN_POINT('',(235.,10.,0.));
#764=CARTESIAN_POINT('',(235.,0.,0.));
#765=CARTESIAN_POINT('',(225.,0.,0.));
#766=CARTESIAN_POINT('Origin',(225.,10.,0.));
#767=CARTESIAN_POINT('',(7.82180684520995,0.,0.));
#768=CARTESIAN_POINT('',(0.,0.,0.));
#769=CARTESIAN_POINT('',(-1.88383244481583,7.5915635835862,0.));
#770=CARTESIAN_POINT('Origin',(7.82180684520995,10.,0.));
#771=CARTESIAN_POINT('',(-63.9208694818529,257.591563583586,0.));
#772=CARTESIAN_POINT('',(-67.0000000000001,270.,0.));
#773=CARTESIAN_POINT('Origin',(-54.2152301918272,260.,0.));
#774=CARTESIAN_POINT('Origin',(225.,10.,0.));
#775=CARTESIAN_POINT('',(235.,10.,0.75));
#776=CARTESIAN_POINT('',(225.,0.,0.75));
#777=CARTESIAN_POINT('Origin',(225.,10.,0.75));
#778=CARTESIAN_POINT('',(225.,0.,0.));
#779=CARTESIAN_POINT('',(235.,10.,0.));
#780=CARTESIAN_POINT('Origin',(235.,0.,0.));
#781=CARTESIAN_POINT('',(7.82180684520995,0.,0.75));
#782=CARTESIAN_POINT('',(0.,0.,0.75));
#783=CARTESIAN_POINT('',(7.82180684520995,0.,0.));
#784=CARTESIAN_POINT('Origin',(7.82180684520995,10.,0.));
#785=CARTESIAN_POINT('',(-1.88383244481583,7.5915635835862,0.75));
#786=CARTESIAN_POINT('Origin',(7.82180684520995,10.,0.75));
#787=CARTESIAN_POINT('',(-1.88383244481584,7.5915635835862,0.));
#788=CARTESIAN_POINT('Origin',(-54.2152301918272,260.,0.));
#789=CARTESIAN_POINT('',(-63.9208694818529,257.591563583586,0.75));
#790=CARTESIAN_POINT('Origin',(-54.2152301918272,260.,0.75));
#791=CARTESIAN_POINT('',(-63.9208694818529,257.591563583586,0.));
#792=CARTESIAN_POINT('Origin',(0.,0.,0.));
#793=CARTESIAN_POINT('',(-67.0000000000001,270.,0.75));
#794=CARTESIAN_POINT('Origin',(235.,270.,0.));
#795=CARTESIAN_POINT('',(235.,0.,0.75));
#796=CARTESIAN_POINT('Origin',(98.702803794833,143.334955287521,0.75));
#797=UNCERTAINTY_MEASURE_WITH_UNIT(LENGTH_MEASURE(0.01),#801,
'DISTANCE_ACCURACY_VALUE',
'Maximum model space distance between geometric entities at asserted c
onnectivities');
#798=UNCERTAINTY_MEASURE_WITH_UNIT(LENGTH_MEASURE(0.01),#801,
'DISTANCE_ACCURACY_VALUE',
'Maximum model space distance between geometric entities at asserted c
onnectivities');
#799=(
GEOMETRIC_REPRESENTATION_CONTEXT(3)
GLOBAL_UNCERTAINTY_ASSIGNED_CONTEXT((#797))
GLOBAL_UNIT_ASSIGNED_CONTEXT((#801,#803,#804))
REPRESENTATION_CONTEXT('','3D')
);
#800=(
GEOMETRIC_REPRESENTATION_CONTEXT(3)
GLOBAL_UNCERTAINTY_ASSIGNED_CONTEXT((#798))
GLOBAL_UNIT_ASSIGNED_CONTEXT((#801,#803,#804))
REPRESENTATION_CONTEXT('','3D')
);
#801=(
LENGTH_UNIT()
NAMED_UNIT(*)
SI_UNIT(.MILLI.,.METRE.)
);
#802=(
LENGTH_UNIT()
NAMED_UNIT(*)
SI_UNIT(.CENTI.,.METRE.)
);
#803=(
NAMED_UNIT(*)
PLANE_ANGLE_UNIT()
SI_UNIT($,.RADIAN.)
);
#804=(
NAMED_UNIT(*)
SI_UNIT($,.STERADIAN.)
SOLID_ANGLE_UNIT()
);
#805=SHAPE_DEFINITION_REPRESENTATION(#806,#807);
#806=PRODUCT_DEFINITION_SHAPE('',$,#809);
#807=SHAPE_REPRESENTATION('',(#481),#799);
#808=PRODUCT_DEFINITION_CONTEXT('part definition',#813,'design');
#809=PRODUCT_DEFINITION('Wall_element','03_Wall_element_25_scoops',#810,
#808);
#810=PRODUCT_DEFINITION_FORMATION('',$,#815);
#811=PRODUCT_RELATED_PRODUCT_CATEGORY('03_Wall_element_25_scoops',
'03_Wall_element_25_scoops',(#815));
#812=APPLICATION_PROTOCOL_DEFINITION('international standard',
'automotive_design',2009,#813);
#813=APPLICATION_CONTEXT(
'Core Data for Automotive Mechanical Design Process');
#814=PRODUCT_CONTEXT('part definition',#813,'mechanical');
#815=PRODUCT('Wall_element','03_Wall_element_25_scoops',$,(#814));
#816=PRESENTATION_STYLE_ASSIGNMENT((#817));
#817=SURFACE_STYLE_USAGE(.BOTH.,#820);
#818=SURFACE_STYLE_RENDERING_WITH_PROPERTIES($,#824,(#819));
#819=SURFACE_STYLE_TRANSPARENT(0.);
#820=SURFACE_SIDE_STYLE('',(#821,#818));
#821=SURFACE_STYLE_FILL_AREA(#822);
#822=FILL_AREA_STYLE('',(#823));
#823=FILL_AREA_STYLE_COLOUR('',#824);
#824=COLOUR_RGB('',0.749019607843137,0.749019607843137,0.749019607843137);
ENDSEC;
END-ISO-10303-21;
